*** Life<FredkinCell> 38x10 ***

Generation = 0, Population = 31.
---0-0----
--0-------
----0-----
----------
----------
-------0--
----------
----------
----------
----------
------0---
-----0----
0----0----
----------
----------
----------
---------0
--0-------
----------
-0--------
-0---0----
----------
0---------
--00------
------0-0-
0---0-----
-0--------
-------0-0
---------0
----------
----------
--------0-
-0--------
--------0-
----------
--------0-
----------
-0---0----

*** Life<FredkinCell> 21x71 ***

Generation = 0, Population = 49.
-------------------------0--0---------------------------------------0--
------------------0-0--------------------------------------------------
----------------------0---------0-----------------------0-------0------
-------------0-------------------------------------0-------------------
----------------------0------------0-----------------------------------
-----------------------------------------------------------------------
------------------------------------------0---------------0--0---------
--0------------------------------0-------------------------------------
--------0------------------------------------------------------------0-
--------------------------0-----0--------------------------------------
----------------------------------------0-------------0-------------0--
---------------------------0-------0-------------------0---------0-----
-------0--------------------0--------------0---------------------------
----------------------------0-----------------------------------------0
---0---------------------------------------0--------------0------------
-----------------------------------------------------------------------
---------------0-----------------------------------0------0------------
---------------------------------------0--------0----------------------
--------------------------------------------0--------------------------
-0------------0-------------0--------------0---------------------------
----------------------------0---------------------------------------0--

Generation = 74, Population = 699.
9-+--+8++--9596-+--++--+----++-9+-+---+---+-+----+-+++----8-++7+----+++
--+6-6++-5-5-8+-----+-9++--6+64---+--48---4-+79-+------7--+-----+-+-+8+
----+-++++8+--+--+---68-+-+-7-9---+-+-----6-----+------6+6+--8--+-+8+-+
99-+--+-----++-++-9--++-+-+--+-+--9+6-9+--++3-++--3+9+---+8-7-6-7-+67--
-+-+---+++-----7++-+-----++9--+-+-+8++-----++---++-++++--+--7-8+---+---
---4++-59796--+---+43+-8+----++-++-+-1--+--+56-7+-++-84++76----69-4----
---9++-++8+7+--+-8-----67+----+--++---++-+--+++++6-++-+---+-+-++-+-+-++
+---+-+-3--+--++-+-++45-8++-+++-+8-+-7-+-8-----+---8-+-----+-+---8-+---
7++---79--+++--+9-+----++++--+---6--+--9--++++----7---++--++--+++--++++
-8+-9----6+++-+-+---+3+-+-----+9-+-++---+4-99---+5-+-4----7+-98---+----
+-+-----+-9+-7---8--+-++-+++8-+---+6++--+--+--7---9+--4----7++--+--+-+-
--+8--++++---9-+-+++-+++-+-+----++--------++++8+++9++-7+-+-----9++7+--+
-----+-+++++-+5+-7----++-++--++-------+-+9-++----5-++--+--++++---+-++-+
-8---4---1-77-----+-+-+-+----794+---+4+--787-69+-97+---++4-----+--+-+++
--------++6+---+++-++--+-+---++-----7-++++--+++++-+-+-+--+-+-+-+--+++-+
--++---8+-9+----++-+9+-+++9-++-+--+---8++7---9---+8--------+-7-++-+-8--
-8+++-----++8--+2------+-++-+---7+9--89----+-++8---+--9++-+9--++++-+-+-
-7-----8---8--8--4++++++--++-++---8-+++-----8----5-+-39--7+-+9--+7+-+--
--8-+---+3---8-9+4-+--7--++-+--3+++---+6+-++-+---2+--9-5+-+----9+++---+
-----98+--+-++++--+++7--+5--+---+---+--+-+8--55+---+++--+--+++-9---+6--
--+-+--78--+--6+--++--------+--+++--+7--+-+-9-+9-----+-7+-+--+--+8--+++

*** Life<FredkinCell> 103x1 ***

Generation = 0, Population = 45.
0
0
-
0
0
-
-
-
-
-
-
0
-
0
-
-
-
0
0
0
-
-
0
-
-
-
-
0
-
-
0
-
-
-
0
0
-
-
-
0
0
-
-
0
-
-
0
-
0
0
-
0
0
0
-
-
0
0
0
-
-
-
0
0
-
-
-
-
-
-
-
0
0
0
-
0
0
-
-
0
0
0
-
-
0
-
-
-
-
0
-
0
-
0
-
0
0
0
-
-
-
0
0

Generation = 7, Population = 50.
-
-
-
2
-
4
-
-
-
1
-
-
-
1
-
-
-
-
-
-
-
-
2
2
2
1
-
0
-
2
-
-
0
3
5
2
2
1
2
1
1
-
-
3
-
-
2
-
-
-
4
3
-
4
-
2
2
-
-
-
0
2
-
3
2
1
2
-
-
5
-
-
-
3
1
2
1
-
0
-
-
2
-
2
-
-
1
-
0
-
0
-
1
0
-
-
-
3
-
1
3
2
2

Generation = 14, Population = 46.
-
-
-
-
3
-
-
-
-
-
-
-
1
-
-
0
4
-
2
-
-
-
-
-
-
3
0
-
-
5
5
0
4
5
-
5
-
4
6
-
8
4
-
6
-
-
-
2
-
8
-
8
3
-
-
6
6
-
-
-
3
-
8
-
-
3
5
-
-
-
1
+
-
-
-
5
2
1
-
-
-
3
1
5
-
2
3
-
0
-
2
-
6
2
-
6
-
6
7
2
-
-
-

*** Life<FredkinCell> 3x18 ***

Generation = 0, Population = 47.
-00000000000000000
0000000000000-00-0
-0000-0000000--000

Generation = 187, Population = 25.
++------+----++---
++---+++-+--+-+-+-
+++-+-++++-++--+--

Generation = 374, Population = 28.
+-++++++-+------++
-+-+--+--+++-+--++
+++----+++----+++-

Generation = 561, Population = 25.
+--+++-+-+++------
+-++--+-+--+---+-+
+-+-++--+---+++--+

*** Life<FredkinCell> 27x45 ***

Generation = 0, Population = 122.
------------0--0-----------------------0-----
-------------0--------0-0--------0--------0--
--------------0----------0-------------------
---0-------0-0--------------00-----------0--0
--0--0--0----------0-----------------0-------
0-------0---------0---0----------------------
---------0--0------------------0-------0-----
-0-0---------------------------------0--0----
-0----------------------00------0---------0--
0----0----0-0---0--------0----------------0--
---00--0-------0----------------------0-----0
--0--------------------0-0-------------------
-------0----0-0--------0---------------0---0-
0-0------------00-------------0------0------0
--0------------------------------------0-----
---0-----------0-----------------------------
---------------0----------0-----------0------
---00----0----0-----------0------------------
------------0------------0---0-------------0-
----0-----------------0--------------------0-
----0---------0--------------0-------------0-
-0--0-----0----0--------000--------------000-
--------------0-------------0----------0-0---
-0------------------0--------------------0---
---------0-------0----------0---------------0
---------00----------0-----0---------------0-
---------------0------------0----00-----0----

Generation = 76, Population = 617.
+--++----+----++++++-9+---8--+------+-+--+--+
+-+++----++-+++-+-++-+-++++-++----+--++--++--
+++-+-+++--+---+++-++----+---++----+-++-+++++
++-+-+++-++-+--++++++-+-+--------+-+---++++-+
--+---+9++---+-+-----+-+-+-9++--++--+-++-+++-
--+++--++++++++--++-++++-++--+-+++--+4----++-
++-9+--+-------+---+---+-++-+++-+-+-++++--+--
9---+++++-+-+++++-+8-+++-+++++----+-+-+-9+++-
-++--++-+--+-+-+---++-+--++9+----+++-++++--++
-+-+++--+----+++++-+-+-++-++++-+--+7--+++++++
--+-++++-+-++++++-+--++--+--++++-+--++++--+++
-++-------++---+-++-+--+--++++-+--++++++--9-+
+--+-+--+++-++++--++++++-+-+++++----+-+----+-
----+-+----+-----++--+-+-+--+-++-+-++---+-+-+
--+-+-++++-+---+--+8+-------+-+--+++--++++--+
7++-+--------+-+9+-++-++--+++++---++++----+--
++-+---+++--++++--+--+++---++--++-+--------+-
---+-+-+++--+---+--+-+-+-++---++-+-++-+---+-+
-++--6-+-+++--++++-+-+--+--++-++--++--++++---
-+---+-++++++---+--7++++6++-+----+++--+++--+-
-+-++--+-+-++--++-++------++-++-++++--++8+++-
++++++------++--+-----+--++-+-+++----+----+-+
---+-+++----+----+++----++++---+-+----+++++--
--+++---+-+-9++++-7+--++++--+-++-+-+----+++--
+---+-+-+----+9--++-+-+--+--++----+9++--+--+-
-+-+-----+-+-+++++-+-++--++++-+--++++-------+
++-+-+-+8++-++-+++-+++--+-++++++-+------++---

Generation = 152, Population = 627.
+-+-+----+---+---+++++--++++-+-+-----+-+++--+
-+---+---+-+-------+++++++--+--+-+++-+++---+-
+++-++++-+---+-++++-++-+--+-+++++-+-++--+----
+-+-+++----+----+--++++++-++---+-+-++++---+-+
----+-+++-+-++-++-+-+++-++++----+--++++---+--
+++---+-++-+--+---++-+-+--+-----+++++++++-+-+
-++-+++--+++++++++--+++--+++-+--+-+-+-+-++---
--+++-+-+----++++-++--++----+---+++-+-+-+--++
-++++++-++++-++++-+++++++-++-+--+-+-+-+----+-
++-----+++----++-+-+-++-+++-+----+-+++----++-
-+-+-++++--++++--+++-+--+--+-+++-++--+--+++-+
-+---+--+-+-++-+--+--++-++---++-+++---+++----
+-+--+-++++-++---++-++++----+-+++-+-++++++++-
++-+-++--+---+-++-+--+++-+++++-----+-+----++-
++-++-++----+++--+++-+++---+-+++-+--++-+-+++-
-++++-+--++-+-+--++--+++--++++--+-+-+--+-+--+
------------++++-++-++++--++++++----+-+-++---
-++-+++------++-+--+-----+++++--+-+--+--++-++
-+-----++++-+++-+++++-+-+++++-+++-++---+--++-
+++-++---+++----+++++-+--+-+---+----+-+---+--
++++----+----+++++--+-+-+++-+----+-++-++-+-++
-+----+--+----++++-+-++-+++-++-++--+++-----+-
-+++-+++--++-++---+++--+-+++--+++--++------++
++++-+--+++-+---++++-+-+++-+--+-+--++++-+++--
--+-----+---------+++++--+-++--+-+++-++-+---+
-+---++-----+----+--------++--+--+++------+-+
++++++-++--+-+--+-+++++-++---+-+-+-++-+++++++

Generation = 228, Population = 592.
-+++-+++--+++++-+++-++---++++--++-+-+-+---+--
-+------+--+++-+-+--+-+--+-+-+--++++-++++++--
++-+--+-+++-+-+-+++--+-+-+-+-+-+---++-++++--+
+++------+++-+------+-++++++--+-++-++-++-+---
+-+---++++----++++---++++-++---+--+-+-+--+-+-
-----+++-++++-++--+-+--+---+--+++++-+-+-+++++
++++-++++-+------++-++--++-+++-++--++-----+--
-+-+-+-+-+--+-++++-+--+----++++---++--+-+++++
-++--+-----++--+-++-----+++--+-----+-+-+--++-
-++--++-+++--+---++++++----+--+-+---+++-++-++
+++++-++---+--+++-+---+--++--+-+-+-+-+------+
++--++-+---+--++++-+++-+-----++++----++++----
-+---+-++---+++++-+-+++-+-+++++-+-++--+-+----
+-+-++-+---++---+-++-+-+-+-+---+++-++++++++-+
+-+---+------++++-++--++---+---+++-+-++---+--
+---++--++++-++++-+++----+-----++-++-+--+--+-
++-+++-+-++-+-+---+-+-+-----++-++-------++++-
--+--++--+-+----+-++--+++---+++--+-+---++--++
+--+++--+--++-+-+---+-++++-----+-+-+-++++++++
++--+-----+-++---++-+----+--+-++----+--+--+-+
+---++++--++++-+-+--+--+++-+--+-++-++--+---+-
--+----+++-+-+++--++--++-++-+++-+-+---++--+--
+-+++----++-+-++-------+-++++---++++-+-+++++-
--+++-+--+-++-+---+---+-----+-+++---+---++-+-
----++++----+-+-+--+-+-+-----++---+-+---+--+-
++-+++--++-----++-+-+--++-+--+----+-++++-+++-
+--+---++--++-+-+-+-++--+-+++--++--------+--+

Generation = 304, Population = 613.
-+-+-+-----+---+--+--++---+-++-+-+---+--++++-
+-+--+---++--+++-+++--+++--++--+-+---+-++++++
+-+--+-+-++-+-++---+--+--+-+++--+--+---+---+-
-++---+-+++--++++-++++-+----+-++--+-+-+--++-+
+--+-+-+----+-----+++++-++-++-++-++-++--+++++
+++---+-+++-++-++++-+-++++-+--++----++++--+-+
--+-++----++++++++---+---++----+-+--+---+++--
-+-+-+-+-+-++------+-+-+++--+---+++-----+--++
-++-+--+-+--+---+-+--+++-+--+----+-+--++++++-
+++----++-+-+--+++-++--+--++-+++-++-++--++-+-
-+--+-++++-+----+--+--++---+++++-+------+-+-+
++--+-++-++-+-+-+-----+-+-++-++--+++-++-+--++
--++--+++---++-+--+---++-+-+++-+-++-++-+--+--
++--++--+++----++--++-++++-+++-+++--++++-+-++
--++-++++-----+++++-+++--+++++---+++---+-+-++
--++-++--+----+----------+-+----++-+-+-----++
--++-++++-++++-+-----+--+-+---++---+-++--+-+-
-++-++-+++---+-----+++---+-+--+++-++++---+--+
-+-+---++-++++--+++---++---+--+++++++++-+++++
-++----+--+++-++--+--++-++-++-++++-+-++-+-+-+
---++--+--+-++--+++-+---+-+-++-+--+++----++-+
+-+-+-+--+-+-----+----+++++---+++-++++-++-+++
-+-++++--++---+++-+-+---++++-+----+-+++++-+-+
---+-+-+++------+-+--+---+--+-+--+-------+++-
+-----+---++++++--+-++--++-++-+-++-+-+++++--+
-+++++----++----++-+---+++-++-++---+-----++-+
++++++++++++---+--++-++++-+-+++--+-+--++++---

*** Life<FredkinCell> 43x187 ***

Generation = 0, Population = 54.
-----------------------------------------------------------------------------------------------0-------------------------------------------------------------------------------------------
---------------------------------------------------------------------------------------------------------------------------------------------------------------------0---------------------
------------------------------------------------------------------------------------------------------0------------------------------------------------------------------------------------
-------------------------------------------------0-----------------------------------------------------------------------------------------------------------------------------------------
-------------------------------------------------------------------------------------------------------------------------------------------------------------------------------------------
-------------------------------------------------------------------------------------------------------------------------------------------------------------------------------------------
---------------------------------------------------------------------0---------------------------------------------------------------------------------------------------------------------
-------------------------------------------------------------------------------------------------------------------------------------------------------------------------------------------
-------------------------------------------------------------------------------------------------------------------------------------------------------------------------------------------
---------------------------------------------------------------------------------------------------------------------------------0---------------------------------------------------------
-------------------------------------------------------------------------------------------------------------------------------------------------------------------------------------------
----------------------------------0-------------------------------------------------------------------------------------------------------------------------------------0------------------
------------------------------------------------------------------0-------------------------------------------------------------------------------------------------------------0----------
-----------------------------------------------------------------------------------------------------------------0-------------------------------------------------------------------------
-------------------------------------------------------------------------------------------------------------------------------------------------------------------0--------------------0--
-----------------0-------------0-----------------------------------------------------------------------------------------------------0-----------------------------------------------------
-------------------------------------------------------------------------------------------------------------------0--------------0----------------------0---------------------------------
---------------------------------------------------------------------------------------------------------------------------0---------------------------------------------------------------
--------------------------------------------------------------------------------------------0----------------------------------------------------------------------------------------------
----------------------------------------0--------------------------------------------------------------------------------------------------------------------------------------------------
------------------------------------------------0------------------------------------------------------------------------------------------------------------------------------------------
---------------------------------------------------------0------------------------------------------------------------------------------------0--------------------------------------------
-------------------------------------------------------------------------------------------------------------------------------------------------------------------------------------------
-------------------------------------------------------------------------------------------------------------------------------------------------------------------------------------------
---------------------------------------------------------------------------------------------------------0---------------------------------------------------------------------------------
-------------------------------------------------------------------------------------------------------------------------------------------0-----------0-----------------------------------
-0---------------------------------------------------------------------0-------------------------------------------------------------------------------------------------------------------
--------------------------------------------------------------------------------------------------------------------------------------------------0----------------0-----------------------
-------------------------------------------0-----------------------------------------------------------------------------------------------------------------------------------------------
-------------------------------------------------------------------0-----------------------------------------------------------------------------------------------------------------------
--------------------------------------------------------------------------0----------------------------------------------------------------------------------------------------------------
----------------------------0--------------------------------------------------------------------------------------------------------------------------------------------------------------
-------------------------------------------------------------------------------------------------------------------------------------------------------------------------------------------
---------------0------------------------------------------0-----------------------------------0-----0--------------------------------------------------------------------------------------
-------------------------------------------------------------------------------------------------------------------------------------------------------------------------------------------
-------------------------------------------------------------------------------------------------------------------------------------------------------------------------------------------
-------------------------------------------------------------------------------------------------------------------------------------------------------------0----------------0-0--0-------
-------------------------------------------------------------------------------------------------------------0---------0---------------------------------------------------------------0---
-------------------------------------------------------------------------------------------------------------------------------------------------------------------------------------------
--------------0------------------------------------------------------------------------------------------------------------------------------------------0---------------------------------
---------------------------------------------------------------------------------------------0---------------------------------------------------------------------------------------------
-------------------------------------------------------------------------------------------------------------------------------------------------------------------------------------------
------------------------------------------------0------------------------------------------------------0-------------------------0-------------------------------------------0-------------

Generation = 111, Population = 4049.
08--69---4782796-96-5-49-7-6---545-4-4--+---+-------8+-+--+-9+-9--+-----+--+----5-----6-4+--++6+89+++-----7-8++++8--8+-+++++-+8+5+-+-+----+----9+8+-+-+-++-+8-++-+--9--+-----+-++--+-++++--
6+67-+4-94-----+-537--+6--8-779+-5+--6+7-5-+-+-+----7---8++-+---7++--+-+-97-+----8-+-----9-+8++---+++-------+--+-+7+++-+8-++-++--4++--+--+-+--+---+-+----+7+7--+---+-++++---+---+++-6+-----
-+-97-3-975-876+-85--6--+---+---+-+-9--++77-+++-++---+-+97-++---+--++---+--+--7--8-+-+5+-+-+8++++--+-+-+-+-+9++++--+-+---+----++----+---7--47---6-++--9+-----++-+++-+---++-+-+++-+++-7-+---
6-878++-6++-+++-++--+-8+-+8-+-+-++-+---+-6+87-9+8-9---+-4-8-+9-+-+7+7--------7-+9+-+-9+--9-+--+---+++-++---79+9+----67------65-++--+-7+-+++-+--+-----+-+8-+++-+9-+----+++---+-+++-+-+-9-8+6
--8+4-+-6+---+-+8++4-9-3-+7--9---9+---++8-9--8----7+--++-+-++---++++-+--+--+6-+7-5-------5-+--+-+--++++-++8-+9------+-+--+-+6+7-+--++++-+-+++7-----+--8---+-++-++--+8++------+-+++++-8-+--+
48---638------++7--44-+--------------++-+++++82++-++7+--7-+-----7---+----+9+-+7-7--+-+-++8---+--+-+++-+-7-+++--+----9+-----+++-+--9+-+++7+---+++--+++-++-+++-+--+++---8++-----+---+-7+6-8-4
7+-+7-45-6----48---+59--------8---+-------9--+5-+----9----+8+8++8+++8----+-+++9--+++---+-+--++++4-++++++7+-+---+++---+------++---++--+++-+----+++-+++--+--+++----++--+-+-+-+--76+7+9+++9-+8
---7++---8+--+----8-+----++----+-+-+-7+-949----7+59+--5-+-+--8-86--+-+--87---+---99-4-+44--76--6----8-8-3-97--69-+-+--7--+2--++-4++-5-7-5-9----1+-+----9---++++----+9-61-+--8-+-----4-++---
-7--46-53-99-67-9++57---5549-+3-+----++-7--+5+37-+-75-----+-+7-9++-++-9++++6++4++--+-69+79+++-++--+-+-++5-+-9+8-6+--5--++-++--+-++---+++---+-7----+-+-++++--++++-6-+7-+---9--++-+++-+---+-8
+-7--8-+7-96-+8-3-4--+-72-+8-8++---9++--9559-8--9++-4++-+++-+--+++--6-+-6-7----++--+6++++--+--+++++6++---+-+++--7----+-++--++-77--++--+88-+--8-+++----++--+--+++--8--++-+--+-+8-+-++++8-++-
-+---+---83----9+-9--4-4-7----++--+----+-++++-+-+-++5-+-8-+-+--+++++8-++4--++-+---8-9+9+-----+-+-++9-+-+-+-+++6++---+--+-8-+6-5+-++-+--+9+-+9-86-------9+-------++---+---+---+--++--++++++-
-+--++8--6-+-9-+----++-++--8-+--+---+++++-+-++--+-+--5+++7+---+-+-+---++-+------7-67-8-9---6-+++68+-6++7-+-9-++-+-+-----5+--9---9+---+-+-+5+++--+--+--+++79--7+--+-++-+++-+5+8++---+-+-++-+
8+959+-8-+5--7-5--+8+---+-+--------5+-+9-++++--++----55----9++-++-+8++----9+--++---++++++-+---++-+-+++---+-++--++++-9-----+-++--4---+--++--+++------+++++-++++++-+-++++--++--+-+-++-+++--+-
----5--+--9+9+-8-+-7---+6-----7-97++-+++++++--++6--+7--5++-+--6+68---+4---6--++++9+--++-4----+--+++++-+-++-+-+-+4++--+987+-----+-------+4--+-++-++++9-+-+----+-+-+-++++-----+--+---+8+8+9+-
7-75--775------5--3+--36---8-+5-9+-6-+8+--++-66+-++57--+--+6-+-++---+++---+-5+9--7+-----4---+++-+---+--++--8+++-7+-+-+---++-8-+----+-++--+++9--++-----+-++++--6----+---+-+++----++-++-+---+
--66-9+8+7-++-+++-+--++---+--+-+--+--++--7+---+-+++---++--+---8+----5--+++--+-+---+---47++-87+++9-+-9--+5------4---+-+-8--9----6--+--++-9++77-+7----7++----+4--7-+8+++--++6+--+-9++--++78--
+6---+76++-98--37-5-6----7--++8-----9---++----+5++--9++-+++---+-+-+++--+---++++---+8-+8-7+-++-------+++--+-+++---+++-+--+-++----++--8---++++-+++---+9--9+---++---+-+-++-+++-++---++--++-+++
++--8-585-8--7-------8+-6--+++++--+---+++++-----5-++4+-++--+-49---++--6+-+-+7+-+-++----+-6---++-+-+---+-+-++-+-+++++--6--+-++--+++-++-++++--8+--+--+---89+---++-8+4+--+-+--+8-8---4+6-----1
5-5----7-8-3--695-4--62--1-97--6+---+47++++---+-+++-+-+6-8+---+++--++-++---6+----4---+--8--+---------++--++-++9+-+8-+----+-++--+9---++++7--++-++-+++--++7+-+-+--9+---+++-----+++-++-++++-++
---97-3+9-++++---+--+--9-----+----+5+---++--+5----+++++-+++------+--9-++6+++++-+--+-+-+---5-+7----+6+++7-7-------++--+++-8-------9-+---+-++6+-+++-+++++--+----+9----++-+-++++++++------++--
++++8--9-++5+--+-+-+--9--8-8--++9-------+--+----9---+--+-9-+--++-+--+-+++--+79--9+---+-+++-++++---++-+++++--+7++++++-8-+-++++-7+--+--8-+-+-+---++--+----+++9---8-+9+--++++---+-++-++++--+-+
49-8-+--8++---+--+---9--6--8-+--+--++---+-+9-+-+9+--+-++7+++-+-+---++------++-----++-----+++--++-++9+-+9+-+++-8-+-+--+---+----++-+-++-8-++8+--+------+--9+-+---+-+----+++--+-----+++-+--+--
--587-8-+-9-6-9-++9+7+----6+--9-++7-++-++6---+7++-+--+9--9-+---++++--+++++-+-+6-+-+--+-----+--++--6-++-+---+---++++---7--+--6+76-+++++-++-++7-+-9--9-++-7-+-+------+-+-+--8-8-+8--+---+--+4
+-96+---+++---+-++----+-8-+-+-----+7---9+-++++---+---4---+-+6+9-----------++8-++--7++-+---787--6+--9--77-+8+-+--9------56-++7-9---+-7-++---+9+++-+9---8----+--+8-+-+-++86--9---89-+++--87-7
+6++-+57---+++++6-++5-----++++-+-+-+-78--++--++-+-+-97--+---8---+++---6+9-++-+++9---6+-+--++++-+++----+-----9---+-6--+-++-2---+---+++++--+--8-879+6--+6+9-----++---+---++----+--++--++-++-+
-65----+---+--+--++-1-4-6-+-+-----8+-+9--+----++-+--85++-++-++78+-++-++-+---7++-7+9+--+-+-+++--+++-+-++--++-----9-+-++--2---+--+-++-7---68+-8+---8+++-+--+++-++-++--++-----++-+--+-+-+--856
-------58-+---+--+--9----+--+----87-----+++-----++---+-++--+-+9----+++-88+--++-+-+--+--+-+++-+--++--++-++++-++--++++-++++-+---+----+--+-6+++-+++-+++9++--+-----+++9-+-+---96++++----++++---
-7-8--8-+-----+++--+48++----++--+-++-6+8++++-+--8+9--7-96--+----+++---+-++++9-+-7----+++++++--+--+--+---------++++7++-5+-----++-7-++-+++--+++--+--+-++---+-+--8+--9++++--++++---++--+-+-++8
+---57-67++--8--+-+8+-+8-+-+--++-+++-8--++++--++--+-++--++++-++++-+-+--+++---7-+-----7-+-++-+--+-++-+--+-++-9---++++-+----+-++---+---+++---++--9+-++----5+--++7-----+--9++++--+-+++++++++-4
--4+++574-9+9++-++++-+++---+--++---8-+-+-++-+9-+-++-+--+---+++--+--+-+--+--+--+-++--++--+---++---+--++-+--+---+--++-+-+--+-+-+---++++--+++---+--------+-8-8+-++-8+--+---+-+--+++-+--++9-+-3
772-4+-+-+4+-+++-87+789-9-8+++--++-+-8--++6-++-6---+--+---6----++---+-8+9+--5++++-6--+++-+++---++--+++-+9--++--+-+--6---8-+-+---+---+----++6-++-7++-+---+++-+-8++++++---++9-6+-++--+-+--+-+
+7-++-+++++-+-+-+-++---+-+-+----++-++6+-++------+9-9------+-8-+9-8++--+-95+-+-9+-+---+-+-+7+---94---+---7+-+++-8-9-++-772+++-+86---+++-+---+--+58-+--+799-++-++-++9+-+-4----+-+5+-6--+-9-+-
4-++-+6+-8-+-++8-+---+--5-4+8+78------5-----6+---98++-+---+---9+6+-+-+++-++-6-+---+-++8+-++-+-+--+--+----+---+++---+--+-+-8++-----++++--+--8------6+-+---+-++--+-+5-+-----++9++9----++--+--
+9+-+-+-+++-5++-+---+-+--+-+---+-9++++++++-++++8----8--+---++--+---+--+++++-9+++---+++----7+-+------+-----++-+-++9+--+++-++++--+-+--++5---+++-+-+8-+7+-++++-+++-+-++---+-++-+-++--9+--9-++-
---+-+6+4-89+-+76---------+--+-+-8----9---+++-+7+-+++6-9+---+++8-++-+--5--+--+-8+----+-7----+-++-+-+++---+--------++--+-++6+-+-------++-+---7++-+++-++--+++----+--++--+++-+-+-+-++++++-+++6
---6++9--6------+---+------+-9++--+++-+++-+--7-+--+-++6+6+-87+---+-+-8-+--48-5--++---+7-7-+58-5++9+-++-----+-+6+7+--+---2-+--++99-8+---++++--++---+--------+-9-----+++++--+-++-++-+--+-+9+-
-+---+6-4--+-++-+-++-77-+---++--+++-+-+---+---++---+-8++-9-++--++---+--+-+-+-98-----7-+8+-+----+--++--+--++--+----++-++++++-6---9++-++-++-9+--+++-++++---+-----+---+--+--++--+-+-+-+++-----
85++------5++---++-+8+++-+-+9------+9---7++-+---+++-+-++8+-+---++-++---+--+-8++++++--++-+-+-+-++++----+-+-4----+-+--7+8----------+--++++---+-----+-+-++---++----8+9-----++-+++-8--+---8+---
---56-76+9386-86-89--993756+-++-++----+-+--+-8--+-+--+-+-+++-8----+-+-+++---++-+--6--+-+++-8-+-+-+--+-++-+5--+---+--++--+--+76+--+-+7--++--+8--9-++++-+-----9++-+-+-+++---++--+-+++-+++5-+-
77--+-+--8++--+++-+--+++-+--+++++++-++--+-+-+-++++-+-++++++--++-+++---8++--+-+9+---+9-++7---5++-+++----+7++5+++60+---+-7--45-+8-4+--------+-3-----+-7-++-+8-2-8+7+5+--+8-+9--++47-6-7-4-3-6
499-9-+---8-5498--5++-+-+8--++++-+--87-+++-+++-++++--9-+-+--++----++++-+--+-+---+--++67+-----+-+--9++-----6----+--9--+----+---+-+-++++-+++-+8--6--+++--+--+-++--9+++---+-+--+-+--++-++++---
-7+-++93-6-+8++------++75-++-+7+88-+-5-+9--+7-+-8++-++5+++-++--98--+--9+--5+-++--8-97-2------+++---++--+----+-++--3+9+++-+7---9+8+-----+++-+----9+++-+-+9++--+-9-+4-+--++-++-----+5+--8+--2
---+--++-8++69----76-+8--7--+-+--8-+++---+-+-8------9+---+++---++---+-+-+-+++--+-+--7+6---+-++--+9-++-++++6+-+--+---++-+-+-----++-----+9+----+7-6-6-8--+---+-++-5+---++++++---+++-+7-+---+-

Generation = 222, Population = 4024.
---++-++++++++++-+-+++-++-++-+-+++-+--+---++-++-+--+++-------+-+-++-+++++++++-+---+---+--+-++--+++++-++-+----++++--++-+++-+----+--+--++-+--+++-++-++---+-++--+-++---+++-+-+++++++-+-+++----
+++---+--+++++++-++---+++-+---++-++-++-+--++++-+---++------+-++-++++---+-+-++++----+----+++++--+++++-------+-+-+-+-+++--+++--+-+++-+---++-+---++-+--+--+++-+++-++----+--------+++-+-+++--+-
--++-++-+--+++-+++++++------+++++++-+++--++----+-+-+-++--+-+-+-++-+-+++++---++----++--+++++-++---++----+--++-+------+-+-----+-++++-----+--+-++-----++----++-++--+++--++++++---+-+-++-+-----
-++-++---++---++++---+++-----++++++---+++-+-+-----+--+++--++++++--+--+-++-+++-+-+-+--+++--+-+-+---++-----+---+++--++----+----+++-++-+++--+++----+--+-+-+++-+-+++-++++----+-+++-+-+---++-+-+
+++-++++--+-++++++----+++----+-++-++---+--+++-+++--+-----+--+-+-+--++--+--+-++++-++--------+++++-+-++---++--+---+-++---+++------+-++--++-+++---+++-+--+-++---+-+--+++-++---++-+--+----++-+-
-++++---+++--+--++++++---++-++-+------++-++++-++++++++++--+--+-++--+-++-++-+++---+-+-+-++--+--+++-+----++--+++----+-----++-++--++-+-+-++++++++-+-+--+-++++++-+-++----+++-++--+-++--+-+-+-+-
-++---++-++-+--++-----+---++++---+---+--++-----+++++--+--++-+--+--++++-++++-+++--++-+-++++-+--+-+--+-+++-++--+++-++------+-+-+-+---+----+-+---++--+---+++---++-+-----+++---++-++--++-+-++-+
---+++-+++-+++-+-+--+---++--+--++-+---+++---++---+++-+--------+--+-+--+---+-+++++++--+-+-+++--++------+--+---++++++++-+++--+-+-++++--+++--+-+---+-+++--+++-+++-+-+-+----+----+-----+--+--++
--+++++--+-+--+++-++-++++-++--+++----+++-+++++----+--+-++-++-++---+----++++-+--+---+---++++--+--+----+--+++-++--+++-+----+----+++-++-+-+++-++--+++-+++-+-+-+--++-+----+-++-+-----+-++------
----++--+++---+--+--++-+-+++-+-++++--+-++-+-++++++++--+--++-++---+--+++-+++-+++-+-+++--+-+---+++-++-++-----+-+--+-++------+-++++-++-+-+-+--+--+++-----+-++++--+-+--+-+-+++-+-+---+-++--+---
+-+----++-+---+++-+++--+++-++---++++++--+---+++--++-++-+++-+++-------++--+-+-----++-+---+-+++-+-+++----++---++++++++--++-+--+-++----+++-++++--+---+--------+-+++++-+++--+---+++--+--+-+++-+
+-++---+-++-+-+++-+-+-++-+++-+++---+----++-+++-+++-----+-+-++-+-+++--++---+++--++-+-+-++---++-+---++---++----+-+--++-++++++--+-++--++-++++-+-+-+-+-+-++++-----+-++++--+--++----+-+------+++
---+---++++--+-+-+++++++--+---+-----+-+--+++--+----+++-++-++-+-+--+++----++-+++++-+++-----+----++---+-----++-+--++-+++-++++++--+----++--+++++++--+--++-+--+--+-+++++-+---+--++---+++-------
-++--+-+---+-++-++--+-+--+++-+---++---+-+++-+++++-+--+-+-+-+---+-++++++++-----+----++++++++-+--+--++-++--++----+--+++-+--+-------++-+-++--++---++--++-++---++--++++-+---++--+--+-+--+-+-+-+
+-+---+----+++-+-+-++-+----+++-------+-+-+--++--+--++-----+--+-++++-+-+-+-+--++--+++++++---+----++++---+++---+-++-++-++++--+-+-+--+++++--+++-+-++--++++++++-+--+-+----+---+-+---+--+--+++++
+-++-----+++--++-+++-------++++-++-++++-++--++-+++++++----+-+--+-+--+-++++-+-++----+-+++-++--++-++++++-+-+--++--+--+---+--++-+++--++---+++-++--+-+-++---------++-++-+-+++-+--++--+-++--+--+
-----+-+-+++-+++-+-----+---+-++-++-++-----++--++-+-+--++-+++--+-++--++----+-++++++-++-++--+--+-+--++--++--++--++-++--++--+--+--++--++++-++-+-+-+-+-+-+-++++++--++-+-++---++------+-+--++-+-
----+---++-----+-+-+-++-----++--+---+++--++-++-++-+-+-+-+++++-+---+--++---+-+--+-+---++++-+--+++-++++--------++-++-++-+++--+++-+-++-------+--+----+-++---+-+----+--+++---+++++++--+++------
--++----+--+++-++---+-+--+-++-++++++-+++++++++-+-------+++++---+--+-++-+--++--+-+++-++-+-----+---+-+-+-++-++-+--++++-++++-+---+---+---+-+--+---+++-+-+-+-+++----+-++++--++-+---+++--+-+-+-+
++-++--+-+-+--+---++++--++-+++-+++--+---+++--++--+++++-+---+++-+-----++++-+-++-----++--+-+++---+++--++++-+----------++-++----++++-+----++--+--+-+-+---++---+-++---+----+-+-+--++-+++--++--+
+--++-+++-+---+-+---+-+-+-+-+++++++++----++-+-+-+--+-+--+++-+++--++----+--++++--++-+------++---+--++--+-++--++--+--+++-+----++-+++--+++-+-+---+--+++---+--+---++--++-----+-+---+---+--++-++
++-++-++++-++-++----+----+--++--++--++++-+--+--++-+----+++--+--+-++-+--+-+++--+----+-+----++++----+-+++-++-+----+--+++--+++---+----+-++-----+-+--+-+----++---+-++--+++-+-++--+-----++-+--++
+-+++-+++++++-++---+--++-+--+++++++-+--+---+++-+-+++-++-++++--++---+---++---+-+-+---++-+++---+--++-+---+-++--++---++-+--++-++-+--+-++-----++-++----++--+++++----+++---+--+-+-----+-++-+++-+
-+-+++---+--++-+-+-++++++---++++-+--+-+------+-++--+-++--++++++-+-+--+--+-++++-+-++-++-+-++++---++++--+++-+----+-+-+++------++++--+--+--+-++++---+-+-+-+++++-++---+++++-+---++-+----+--+--+
+--++++-++-+-------+--++-+----+++--+--+--+-++------++-+--+-++---+-+--+++---+-+---+---+---+-+--++-+++-+++-+--++-+++-+--+-++-+---+---+++-----+-++++--++---++-+++--+-+----++---+----++-+-+-+-+
+-++++-++++++-++--+----++--+--++--++---+++-++-+--+-+++-++++-+----+-+-++-+-+-+++---+++-+-++-----+++-++---+-+++-+++-+++-++++-++----+--++-+++-+-+--+--+--+------+-+++--++--++++---+--++++--+--
-+----++-+++++++-+-++-+-++-+-+-+-+---+--+++-++++-----+-+-+----+++--+-----++++++-+---++-+-+-+++++++-+---++---+++--+--+++--++-++++-+--+-++----++-++--+++---+++-+++-+-+++-----++++++-+---+---+
----+--+++--+-+--+-----+++---+--++--++------+--+-+++-+++++---+--+-++-++-+-+++-++-+-++---+---++-++-+-++++--++--+--+--++--+-+-+--+-+-+-+------++---+-++--++-+---+---++--+---+--++++++----+--+
++-----+++++--+---+-+++++-+--++++-----+--+--++-+++--+++-++----+--++----+++++--+-++-+--++-+++-+++++++-+-++-----++-++++---+-++--+++-+----++-++-+-+----+-++-+++------++-++---+--+-+----+++-++-
+---------++++--++---+--+++-+--+--+-+-+-++++---++-+-++-+---+--+++-+++--++++----+++++++--++-+-+----++-++++-+++----++-+-+--+-+-+++-+++-+---++-----+--+--+-+++--+-++--+-+---++--+++--++-----++
+-++-+-+++-++-+++++-++++--+--++-+---+++--+--+--+++--++--++++-++-+-++++-+-+-++-++-+++-+--+--+---++--++--+++++-+---+++--+++------+---+-+-+-++-----++++--++--+-++++++--+----+-+-+-+-+-++-+-+++
--+--+----+--+-+-++---+---+++-++-+++-----++--++-+++++---+-+-++-+--++--++-+-+-+++++---+-+++--+--+--+-----+-+-+---+--++++++-++--++---+----++---+-+--+---+++-++-+---+-+--+---++-++++---++---+-
+-+++-+++++-+-++-+++-+--+-++------++++--+--++---+---+++--++----+--+++-++++---+-+++-----+-+-+---+++-------+--+++++-+++-+-+--+-+-++------+-++---+-+-+++-+-++----++++-----+-----+-+--+---++---
---++--++-+-----+--+-+--++--+-++--++--++-+++-+-+++++---++---++-+--++++---++-++++-+-++-+-+----+++++++++-+--++----++++--++---+-++-++++--++-+---+++---+-+--++-++--+++--+-----++-+--+-+-+-+---+
++++-+--+---++--+++-++--+---+++---++-+++-++-++-+++---++-+++-+-+---+-+---+-++++-+---++----+---+--++--++--+-+++--+-+++-+++--++--+--+------+-+++++-+-+--+++---+--++----+----++-----+--+-++-+++
++--+---++-+++-----+-+-+-+-+---+--+-++-++++-+--++++---++----+----------++++--++--+++++-+-+-++++--+++-++++-++--+-----++++++-++-+-+++-++-----++++++-+-----++-+++-+-+-++--+-+++++-+--+-+++-+-+
++-+-+-++++-+-++++++++----+-+-++-+--++++++++----++++-+-+-+++++++--++--+--+--+++-+++--++-++-++++++++-----+-----+-+-+++++++--++---------+--++--++----+++++-----+++---+---+----+----+--+--+-+-
+--++---+++-+-+++-+--+--++-++-+++++++++++-+-+++---++-+-+-++-++++--+---++----+-++-+----+-+-+-+--++-+--++----+-+----+++++++-----+++++--+----+++-------++-++--++-+++++---+++--+++++--+---++--+
---+-----+-++-++-++----++-++++-++---+-++++-+-+--+-+-+++-----++-+--+-++++-+-+-+-++-+++-+++-+-+---+++--+-------+++--+---+-++++--------+-++++++++-+-+---+--+++---+-+++++---+--+-++++-+--+-++++
---------+--++----++++++-++-+-++-++--+--+++-+++-+++++-+-+--+++---+--+--+---++++-+++--+++--++----++--+-++--++-+-+++++++++-+-+-++-++-++--++++--+++++-+---+++-+-++--++--+++--++-+----+++-++++-
+-+--+--+++-----+-+---+--+++-----+---++--+-+-+++-++---+-+------++++-----+-++++-+-++--++--+-+-+-+-+--+--++--++-+++-++-+--+-+--+-+----+-++----++---+-+++-+--++-++--+--++-+-+++++++-++++++-+--
+++++--+++--+++-+--+-++-+-+-++--+-++---+--+-+---+++----++-++-+-+---+-+-+--++---++++--++++++---+-+--+++------+-----++++-+-+--+--+--++---+-+-++-----+++++++++++-+++++--+--+----+--++----+++--
+++-++--++-----+++------+-+++---+-++-+++-++-++--++++++----+-+--++--+---++++-++++-+++--++-++-+--++-++-+---++-++++---+++-+++--+++---+--+-+-++-++++--+-++++-+++-++--++++-+--+++-+-++------+++-

Generation = 333, Population = 3972.
---+--+++-++-+-++++-+--+-++++--+--+------++-++--+++--++-+--+-+--+-+++-+-+--+++--++-+--+++--+-+-----+-++++-+++-+--++----++-+-++++--+--+--+-++-++--++++--+-++-+----+-+++++--------++-+++-+++-
++--+--+++--+++--++-++-------+-+----+-++-+-+++--++-+++-++------+-++---+--+-+-++-+++-+-+++-+----+--+++-+--------+-++++---+++-++++-+-+----+--+-+-+-+++-+--+--++-++-++-++--+-+--+-+---+-+-++-+
+++--+++--+---+-------++--++-++-+-++----+-++-----+++----------+++---+++-++-+--+++-++--+++--+++-+--++--+---+--+++-+--+--+++-+-+---+-----+-+--+---++---++++-+--++---++-+---++-+--+-+++----++-
-+++---+-----++-++--++++-+-+-+-+-+++-+-++-++-++--++++-----+-++---+-++--++-+--+--+-+-++---++-+++---++-+-++++-++-++++++++++---+----+---++---+------+-+--+++++-+-+++-+++--+--+-+++++-+-++++-+-
-++--+--+-+--++++++-+-+---+++-+--+++++--+-++++-+--++---++-++++-----+--++--+-++-++--++++++-+++--+-+-++-+--+---++--+--++++-++-++-+---+-++----+-+-------+----++++--+---+++-+++-+--+++-++--+++-
-++++-++--++-+-+-+-+++++++-+-+--+++-+-+++---++----+-++-+--+-+-+-+-+---+--++-+++--+-----+----+-+-+++----+-+--+---+++-+--++-++---++--+----++----++++++-++++-++--+-+++-+-++-+-----++--+-++-+-+
+--++++-+-+++--+-+-+-++-+--+--+++-+-++--+----+------+-+-------++----+-+----+--+---++-++-++-+-+++-+++-++++--+++++-+++---++++--++--++-++-+-+-++++--+++-+-----+-+-+-+---+-+-+--+--+--+-+-++-++
---+-++-+--++++---+--+--++--++++++-+--++----+--+-+-+++++--++++-+--++-+---++-------+++++++-++++-+-+-----+++++----+-++-++---+-+++++-++--++--+-------+-++--+----+---+-+-++++---+++-++---+-+++-
-++++++----+---+--++-+-+-+++-+---++++--+-+--+----+-+--+--+--+--+-+-++-+-+++---+--+-++++++++++++++--++--++----+++---+-+++-+-+++++-+-+---++---+++-+++-++--+-+--+-++-+-++-+++++-++-+--+----+++
---+-+-+-+-++++-+--++++-+--+--++++++-++-++++++---++++---+-+--+++-+---++++--+-++--+---+-++-++-+---+--+++++---+++++++++-++---+-++-++-+-+-++++-+------++-+++-+-+----+++++--+---+---++-+-++-+++
-----+-+--++--+-++---+-++-----++++++--+-++-+-+++-+-++---+++++++----++-++-+++----++-++---++--+-+++++++------+-++++--+--+--+++--++-++--+-++----+-+++-+---++++---++-++----++++-++---+-++--++++
+-+----++--+---++-++---++---+--+---++-------+--+--++--+----++++-+++++----+----++-++-----+--+-+-+---++--+-+-+---+-+--+----+--++-+++--++--++--+-+-+---++++-+-+-++---++--+-+--+++++----++-+-++
+--+--+-+---+-----+-+---+---+--++++-+-+--+++--++++----++--++--------+++-------++-+---+--+--+++---+-+++---++-+---+++-+-+++-------+-+-----+-++-----------+++++--+-+-++-++--+++--+++-++--++--+
--++--+-+++----++--+-++---++++----+-+---++----+++-++--++--++++----++--+-+--+-+-+++++++--+--+---++-----+--+-+------+-++++---+-+-+-+--+--+-+++++-+++-++++---+----+--+-+-+-++-+++-----+++-++-+
++--+--+-+-+++++-+-+---+----++-+-+--+--+++++---++++++--++-++---++--+-------+--+++++---+--+-+---------+-++--++-------+-+--+----++++--+----+-+--++------++-++-++-+++-+--+-++--+---++-++++----
-+++--++----+--+++--++++-+++++--+-+-++++-+++++-+++--++-+-++---+-+-+-++--+--+++-+-+----+--+-------++++++----++++--+-+-----+++-+-++-++------++++++-+--+-++++++-+++--+-+++------+-+-+-+++--+--
------+-+-----++-+-+-+---++--+--++---+---+--+---++----++++-+-+-+--+--++++-+-+-+-++-+---+--++-+---+----+--+++--+-++---+-----++-----+--++-+-----++-++-+++++---+-+++---+++------+--+++-+-+-+-+
+++-+++-+-+--+++---+--+-+++-----+-+-+-++-+++-------+-++---++-+----+--+--+++++-+-+-++---+-+---+-+-++-++-+++--+++-+++----+-++-+-+++++++-+-+++-----++-+++---+--++-+--+-+----++++-+---+++++++++
---++-+-++--+++--+--++-++-+--+-++--+--+-++++--+++-+-++---+----+----+--+----+-++--+-++---+-++++--+---------+---+++--+-+++---+--+-+-+++-+-+-++++--++--+++-+++-+----+++-+-+-+---+---+-+---+--+
+-+--+----+++---++++--+-+-+--+++++++++++---+---+-----++----++---++++---+-++--+++++-++++++-+-+---+++-++-++--++--+-+-+-----+-----++---++---+--+++++-+--+++-++++++++++---+--+-+++---+---++-+-+
-+-+---+-+++++++-----+++-+--+-+--+-+-++--++-+---++---+--+-++-++++-----++++-++-+-+--+-+-+--+----+++++-+++-++---++-+-+++-+++--+-++----++--+-+-++---+--+--++---+--+++++-++-++----+-++-+-+-++--
-++--++-+--++-+-++--+--++-++++-+++-++++-+--++-+-+-+--++++-+++-+++--++--+--+-+--+--++-+-+++-+-+-++-++++--++---++++-+++++--++-+---+++---+----++--+++--+----++++--+++--+++++++++-+-+-++--+++++
++--+-+--+-+++++----+-+++++--++-++-+-+--++++----+--+--+---+-+-+--+-+++++-----+-----++-+--++--+-++-++--++--++-----+-+-++-+-++---+------+++--+---+---+++---+++-++++---+++------++++--++---++-
--++--+-++-----++------+-+-++---------+-++-++++++++--++-----+---+-+--++-++-+-+---+++-+-+-++-++--+----++-+-----++++-++--+--+-+-+++++-----+--+++------+-+-++--++++-+--+++++-+--+---++--+-++--
-++-+++--+------+---++-+-++-+---+++---+-+---+-----+--+--------+-++--+--++-++--+++++++---+-----+-+--++++++--++-++++--++++-+---+-+-+-+++--++-+-+++----++++--+--++++----++-+---+-+++--+++-+++-
+-++-++-+--++-+-+-++-++-+++-+--++++-+--+--+++-+--+--+-+--++-++-+-++-+-++--++++--++-+++-+++---+--+--+---+----+++-+-+--++-----++++-+---++----+-+-----+--++--++-++--+-+---+--+-+--+++--+---+--
-++-+---+-+--+-+-++---+++-+------+++-++------+----++++-+-++--+--+---++-++---+++-+--+-+-++----++-+----+-++-+++-++---+--++-+-+-++++++-+++-+++++-++-----+-++++-+-++++---+-----+++++---+--++++-
-+----++-+++++++--+-++++-----+++-+-+++-+++-+-++++--+--+-++-+++--++--++-+--+++-+-++-++++++-++----+--++--+-+-+++----++---+++--+-++-------++-------++--+-+-+++-++-+-+-+++++-----+-++--+--+--+-
++-----+-++-+-++++-++-+-++--++-+-++-++--++++----+---++-+++--+---+++++++++--++++---+-+--+---+----+--+--+-+++--+--+--+--++++-++++++------+-+-+-+-++++---++-++-++-++++-+++-++-+++-+-++-+--+--+
----+-++-++--++++--++++---++-----++++++--+-+---+--+-++-+-+-+-+++------+-+---+-+-+++-+-+-+++--+-++----+-++---+--+-++----++-+--++++---++--++++++-++++-+-+---++--++-+--+-+---++-++-++----++-+-
++--+--+------+-++--+++--++-+-+--+++--+-+-+---+--++---+++-++++++++---+---++-+-+++--+-+--++-------+-+-+---+-+++-+-+++--+-++--+--++-+-+--+-++-+--+-+------+++-+-++-+---+-----+-+--++-+++-+-++
--+++++-----+++++--+-+++++----+-+-+--++-++-++-+-+-++--+++++-+++++--++++---+++++-++--+-+-+-++++++++--+---++-----+--+-++++++-+-+-----++--+-++-+-++++-+--+-+--+++--+----+--+-+-+--+-+++--++-++
+++---+-++---++++-+++-+--+++----++--+-+--+-+---++------++++++--++++-++--+-----++--+++-++--++--++-++--+++++-+--+---+-+++-+--+++-----++--+---+++-++-++-+-+-++++------+----+-+-+++--+-----++++
--+-+--+++++---+--++--++----+---+++-++-----+----+-+-+----++++-++-+-++-+-++++---++++-++--+-++-+-------+----++------+--+-+-++-+++++---++-++---+++---+---++-+----++--+-+--+-+-+++-+-+++++++---
-+--+++++-+-+++-+----++-++-++--+--+-+-----+--+--+++----++-+---+----++--+-+-+----+++----++--++-+++++---+-----+---++-+-+-+-++--+-++++---+-+----+------++-+----+-+---++++--+++++--+++--++-----
-+++-++---+++-++--+++---++---+++--+-+-++-+-+-++---+-+++++++-++++-+-+-----+-++++-+--++----+--+-+--+--------+--++-++-+-+--+--+-+++-+-++--++----+-+---+-+--++++---------+--+-+++-++---+--++--+
++-+--+--+----++--++-+----++++-+-+++++++--+-+++-+++++---++--+-+---++-+--+---+--++++-+--++++----++--++---+++----+-+++++-++-+-----+--+---+++-+--+----+++--+++--++-+++++---+++-+----+++--+++--
+-+-+++-+---+++--+-+--+-++++--+--+-+-+---++-+-++-++-+-+----+-+-+++++-+-+--++++-++--+++-+-++----+-+++--++-++++----+-++++---++++--+++-----++-++-+----+++-+++-++-+--++---++-+-++-----+++-----+
----+-+-++++---++--+-----+-------++--+--+--+-+++-++-++----+++++++++++-++-+--+-++++++++------++---+-++++-+++--+++--+-+--+--++-++++-++++++--++-+--+-+-+--++----+--+++++-+--+++---+---++++-+-+
+-+-+--+++--+---+++++-+++-----+--------++-++---+-++--+++-+-++++-+++-++-+-++-++--++-++---+----------+++--+-----+-+-+---+---+-+++--++++-+---++-++------+-----+-++++-+--+++++--++--+-++-+++-++
++-++--+----++--+-+++--+--++-++++-+--+++++++----+++++-++-++-+-+--+++++---+--+-++----------++++--+++-+----++++++-+------+++++++------++-++++++++++++--++---+++-+++----+++-+-+----+-+++-++-++
-+++----+++---++---++-++-++----+--++--+--+-----+++++-++--+----+--+++----+-+-+++---+---+++++++++--+++++--++++---+--+++-+++--+---++++---+++++++-+++---+-+----+-+---++---+-+++-++-+---++-+++--
--++-+-+-+-++++++++-+-----+-+++-++-+-----+-------++-++-----+-+--+--++----+--+-+-++++-+---+-+-+-++--+-+----+--+++-+++-+-+++---++--+-+--+++--+----+-+++---++--++++-+-++-+--+-+----+-+-----++-

Generation = 444, Population = 3877.
+-++---+--+--+------+-++-+--++++++---+-+--+-++--+++-++--+---+--++++-++--++-+-+-+++++-++-------+++-+-++++--+-++++++-++-+--+++----+-+--++---++++---++-+--++---++--++-++------+--+-+----+++-+-
++-++--+++++-++--++-+---++++---+++-++-+--+---+-++--+--++--++--+++++-+-++-----++--+---+-++-++-++---+-++-+++-+-++---++-+-+-----++---+-+++---++++-++++++-+-+-+-++++--+++--+---+++++-+---+++-+-
----------++---++--+++++---+-++-+--+++--+-+-++-++--+-+++--+--+--+-+-+---++--+++-+--+----+-+++--++-++-++-++---+-+-+--+++++--+-+---+-+++-++-++-++++-++-++---++--++--++++-++-+++-+-----+-++--+
----+-+--++-+++-+-+-+-++++---++--+---+-++++-+-+-+---+-+-++--+-+---+-+-----+--+-------++--++--+---+----+--++-+++---+-+-+---+-+++++-+-+--+-----++++---+---+-+-+---+++---++-+--+--+++---+-+-++
+---++-+-+++-+++-++-+++----++-++-++--+++--+----++--++--+++++-----+++++-+-+++++--+-+++++-+-++-++--++++-+-+---+-+-----++-+-+++---+----------+--++-+++-+--+--+---++-++--------++-++-+-+-++++--
--++-++----++---++-+--+---------+++-+-+++-++++-++-+++----+--+++--++++---+--+--++--+++-+-+---+---+--+++++++++++-+++-+-+++---+-+--+++++----+-+-+++++++++----++-+-+-+-+-+++-++++++++--+--+----
+++--++-+-+-+++---++--+++-++-+-+-----+-++-+-++-+-+--+-+-+-++++---+--+-++++++----+----+-+---+++++-+-+++--+------+-++--+-+---++----++-+----+--++--+-++---++-++++++-+-+--+++++++-+-+--++------
+-+---+--+--+++--+-+----++++----+-+++-+--++--++--+---+------+++---+-----++----------++----+++-+--+-+--+-----++---+---------++----++-+-+-++--+-+-+++-+-+----+++--+--+--+-+-+++---++--+-+-+--
--+-++++++---+-+++-+++----++++----++--+--+-+-+---++-++++---+---+----++-+---++-+--+--++++-+----++-++-+-+-+-+----+--++---++-+++-++++---++++--+--+-++-+-+-+-+--++-+++-+++----++-+-+++-++++--+-
-+-+--+--+--+---++---++-+--+++-+-++--+----+-+---+--+++-----+-+-++--+-+--+-+++--+++++++++--++-++-++-+++++-++------++-++-+---+-+--+-+-++--+--+-+-+-----+-+--++--+----+-++-+----+--+---+++---+
-+++--+-+---++---+-+--++--+-+---++-+--+--++-+-+++++------+--+-++++++--++-+-++--++++-+----+-++--+++-+++++-+--+-++-+-+----+-++++-+-++-+-++++--+-----++--+-+--++---+-+--+++-++--+----+-+-+---+
+-------+++-+--+-+--+---+++-++++++---+-++-+-++--+++-+++---+-+---++--------+-+---+---++----+-+++-+-+---+++---+++---+-+++++++-++--+-----++-+----++++--+++++-+-+-----+----+-++-+-+---+----++++
++++--++++++--+-++-+-+-----++-+-++-+-+-+-+-+--+--+++-++-++-++-++----+-+----++--+++++++++--+-----+++--++--++++-++---+++-+++-+-++-++---+-+-+-+-++-+--+-+--+-+++-++-++-+++-+--+-+-+--++-+--+++
-+---++++-++-+++-+---+++-+-++++-++++++++-+++--+-++-+---++++++-+----+-+++-+---+-+---+-+-----+++-+----+-+-++-+-+---+-----++--+++++-++-++++++-++--++--++++-+++--++++--++++-++-++++----+++-+-+-
---++-++++-----+-+-+-+-+-+----+-+++-++-+--++-----++++--++-+-+++++-+---+---+++--+---++++-+-+-+-++------+-++-+-++--+--+--+---+---+---+----+-++----+---+-++-+-+-+--+++-++---+--+-++++++-+-++--
+----+--++-+--+--+++----+--++-+---+-++---+--+-+-+++-+----++-----+-+-+-+--+--++---++++++-----+-+---+++----++-+++-+--+++----+-+++-+--+----++---++----+-+---+-+++--+-+++++--+---+--+-++-++--++
+--+-+--++++-+----++---+-+-+++--+++-++++--++----+-++--++---++-------+++-+++--+--+-++--+-++++-+++-+------++++--+-++-+----+-+----++--+++++++--++++-+++--++---+++--+--+-+------+--+++-+---+--+
---+-----+---++++----+++-----+---+++--+---+-++++-++-+++++-+-+-++-+-+-+-++---+-+++--++++--+---++---+--++-+---++-----+---+++-+--+++++-+-+-++++--++--++----+-+-+++-+---+++--+-++---+++++-+++++
-++-+--+--++-+-+------++-----+++-++-++++++++-+++--+--+-+--+-+-++----+++-++--+++++--+-+++-+-+--+--+-+--+----+--+--+++++++++++++++++---+++++-++-+++--++++--+++--+--++-++-+-+-+-+++++-+++-+-+-
+++---+++-----++--+--+-+-++-++-+++---++-++---++-------+-+++------++-+++-----++-++-+---+--+---+--+-+---++-++--+-+-+---+--++---+++-++-------+-+++-+++---+-----+-+--++-+-+-+------+----++-----
+--+-+-+++-++++-+-+---+++----+--+-++++--+++++-+----+-+--+--+-+---+-+----+---++--++--+-++--+++++-++--+--+---+---+--++--+--+---+++---------+++++-+-+---+++-----++-+-++--++---+----+++---+++--
---+-+++++-++++---+-++++++--+------+++++--++-++----++--++--++---+-++--+-+-++-++-----+-+-++-++--+----+--+-++++---+---++-++++++---+-+-++++---+-+--+----++-+-+--+-----+-+++--+-----++--+-----+
-++-++-+-+-+---++-+-++--+---+----++-++----+++-++++--++-+++-----++---++-++++-+++-++-+--+-+--++++---++-+-+-+----+------+---+-+-++-+++---+-+-+--+++-+--++---+-++--+---+--++-++--+-+++---+---+-
-+-+--+-++-++-+----+-++----+--+-+--+++--+----++-+-+--++-----+----+--++---+++-+--+--------+--++---+---+-----+++-------+-----+-+--+++--+----+-+-+-++++--+-++----+-+-------++++-+---++--++-+-+
+------+------++-+++----+-+---++-++--+++++--+----+--+--+-+--------++--++++++--------++-+++--+-++-+-++++-+++---+-+++-+-+---+++---+---+--+-+--++++-+--+++-+---+-++++--+-+-+-++-----+++-+++-++
-+++---++--+++-+++-++--+-+-++-+-+---++-+--+-+----+---++-+--++--++-+-+-+-++-+-+++----------+++-----+-+--++--+-++--+-+--++++++--+++----+------+-++-+++--+-------+---++----+-++--+-+-++----++-
+++++---++-++-+-++---------+++---++-+++-++--+----+-+++-++-++-+++++++++--+++-+----+-+--+-++-+++-++-++-----++-+++----+--+--+-+-++-+-----+++-+--+-+--+++++--++---++++-++++--++-++-++--+++-++-+
+---+--+----+++++-+--++---+--+----+---++-++--+------+--------+----+-++-+++---++-+++-+++++----+-------++-+++--+--++---+-+++--+----++-+---++----++--+----+--+--++---+-++-+++--+-----+-----+--
--+-+-++++-++--++---+++++++-++-+++++--+--+----+--+-+-+---+--+-++-+-++---+----+++---+--+----+--+-+-----++++-----++-+-+++++++-+++-+-+++-+---++++-+-+--+-+--+---++++-+--+--++++-+--+---+-+---+
++-+-+-----++-++--+--+++++++-++--++-+---++++-+-+--+--+-+---++-+++--+-----+++++-+----+-+-+-+++-+++--++++-+------++--+-++-+----++++---+-+-+-+---++-+-+----+-+-------+---++++-+-+----+-++++-+-
-++-+++----+----+--+----++----++-+----+--+---+--+------++-++---+-++-+-----++-+-++-+-+-+-------+-+---+-++--++-++-++--++-++-++-++-++-+---+++--+++--+++++------+++-++--+++--+-+++--++-+---++++
+++-+-+-+-++-+--+-++-+----+-+-+-++-+----+-+++---+++--++-+---+-+-++-+-++-+++--+------++--+++-++--++----+-+-+-+++-++-+-+--++--+++-+++-+++-+----++-+++++---+-----+-----+++--++---+-+++-++--+--
+-+-++-++++--++++----+++-+-++-+-++-+-++-++--++-++-+--+-+--++++-+-++-++++-+--+--+---+++-++++--++--++++--+++-+-++-----+-+---+-++-+++-+----+-+-+-+++-+--+++---++--+++++++-+--++---------+-+-++
-+-+++-+-++-+-++--++-+--+++---+++++------+++---++++--------+++---+++++-+---+--+--++++-----+----+-+++-+++-++++-+--+++--+-+-+--++--+---++++--+--++--+-++--+-+-+-+++---+-++-+-++--+--++--+----
++++++++---+--+-+++----+-++-------+-+-+-++++-+---+-+-++--++--+--++-+++++-----+-++-+++------------++-+-+++++++--++-+-++-++++-----++-+--+--++++-+---+++-------+-+-+-----++---+-+-+---+-++-+-+
++--+---+++-+-+++++--++-+-+--++++++-++-+++---+-+--+-+++-+------++++-+-+-+-+-+++---+-+--++++-+-+-++--+---+-+--++++-+--+----+-+-+--++-+--------++-+---+++-+-+---+-++--+++++----+-------++---+
+++-+--+-+--+-+++--+--+--++----+-+++--+++-++++--++-+-+-+++--+++--+-++-+-++---++--++++--++++-+-+---+-++-+-++-++----++-+-+-+-+++++++-++-+++--+++-++--+----++++++--+++-+----++-++++++-+-+--+-+
--+-+-+--+++-+--+--++---+---++-+-+-+++++++++-+-+-++++-+-++-+++-++--+-++-+---++--++--+++++---+++--++++-+-++-+-+-+--+++++-+++--+--+++-+++-+++++-+-+-+-+-++++-++--+--+----+--+-+-++++--++-+--+
---+--+++-+-++-++++-+----+++--++++-++---+-++++----+--+------+-+-++---++----++++++++-----++--++---+++---+---+-++---------++--++-++--++-+-----+-+-++-+++++------+--++--+----+-+-+-+++++-+--++
----++--+----++--+-++-----+--++--+--+-+-+---+++-+--+++---+++++---++---+-+-+-+----+--+-+-+++--++-++-+++-----+-++--++-++----+-+-+-++--++---+--+----++------+-+++--++++--+--+--+-+-----+++--++
+------+-+-++-+-++--+-----+---+++--++--+--+-+---+-+++--+--+-+--+-+---++++-+---+--++----+-+-+-++-----+-+--+---+-++---+-+--+----++-----+------+-+++-+----++-++--+-++++-++--+--+++-+-++++++--+
-+++++-++--+--+-+----++--+-+++++-+--+++-++-+++-----++-++---+----+--+---++-++-++-----++----++++-+--++---+-+-+--------++++-+-+-++-+++---+-++-------+--+-+--++--+-++---++++++++--+---++++---++
+++-----++----+-+-++++--+--++++++---++-++-+-++-+++---+---+--+-+-+-++-+--+-+++-+--+-++-++++-++-+-+-++++-+++------+--+---+--++-+-++--+++++-+-+--++-++-----+---++-+++++-++++++-+---++---+-+-+-

Generation = 555, Population = 4094.
+++++-+--+-+++-+++-++-++++-+---+---+-+---+++--++++++-+-+++--+++--++++-++-+++--++-++--+++--++-++++++--++++-++++-+--++---+++-+--+-++----+++---+--+++---+-+-+++++--++-+-----++-+--+--+--+-----
----+-++---+---+++--+++-+-+-+++--+-++--++---+---+--++-+--+-+------+--+-++++++---++++-+------+--+++-+++-----+-+++-++--+-+-+-+-++-+++-+++--+-+---++-+--++--++-+-+-++++--+++-+++-++-+++-+--+++
++--+-+++-----+-+-++-++-+-++------++-------++----++--+++-+---+-++--++-+-+++---++-+++++++++-+-+-++---+----+++--++-+++++++++-+--+--+-+----+--++-++++---++--------+---+++-+--+++--+++--+-+--+-
++--++--+-++-+---++--+--++---+---+---++++-++-++-+++-++--++-++++--+++-++-+---+--++-+-++-++-+---+-++++-++--+-++-+++-+-+---+++-+++-+---++++++-+-+++---+--+++-+---+-+++---------+---++++-++++++
++-++++--+++-+++----+-++---+-++-++++-+-+++--+---++---++-+--++++++----+-+-+++-++--+++++++-++--+-+---++++--+--+-++-+++++--+-++---+-+--+-++---++-+--++--++-++-+++++++--+---+++--++-++-+++-+---
--++--++-+++-+-++-++++++-------+-+----+--++--+--+----+-----+-+-+-+-+---++--++++---++-+-+-++------++-+++--+++-+-++-+-+++--+++---+-+++++--++++++--++++---++--++----+-+-+--+------+++--++--++-
--+--++--++-----+++++++-+-----++-++-+-++++--++------++--+-++++-+++--++---+-+++-+++++--+--+++-+-----+---+-+-+++--------++----++-----+-+++-----++---+-----+--+-++---+++-+-++--+-++-+-++-+---+
-+++++++++++++-+++-+---+-+----+----+--++--++++--+-----+-++--+-++-+--+++-++-+---++--+++-+++++++--+++-+-+----+-+-++--+---+++++-+---------++-++--++-++-++-+-+-+--+--+-++---+-+++--++-++++----+
--+-+++-+-+--+-++-+--+----+--+--+--+--+--+--++-+++--+-----+------++++-----+-+-+-++-+++-+-+++--+++++--+---+---++++---++---++--+--+-+-----+-+----+-+--+---++-++-++-+--++++-+++++--++-+--+-+--
-+++-+--+++--+-+---+++++++-+-+++--++-++++++--++-+++-+++-++++-+-++-+--++-++-+-+--++-+++++-++-+++-+++-+-+--++---++-+-++------+-+++-+--++------++-++-+-++----------++++-+++-+--+++--+-++-++++-
+----+-+-++-+-----++-+++++++---+--+++++--++-+++--+++---++--+-+++++---++++++++---+----++---+--++-+-+-+++---+-+-+-++-+-+++-++-----+++-++++-------++++++--+++--+-+-+---+----+-+-+-+++-++-++-++
--++++++-+--++-++++-+--+---+++--++----++---++-----------+--+++++++--+-+-++--++-+--++-++--++--+-----+--+---++----+-+--++-+++--+++---+-+--+-++--+-+++-+-+++-++--+-+--++++--++-+--+++-++++--++
--+-+++----+-+++++-++++---+--+--+-+++-+++-++-------+-------------++++--++++-----+--+-+-+-+-+++-+++------+-++-+--+-+-+++---+++---+++---+++++++---+--+--++-+++-++----+--++--++--++-++--++++-+
-+--++---++++---+-+-++++++--+----+--+++++++------+-++--+-++-+-------++--+-+----+--+++-+--+---+---+++--+-+--+--+---+++---++-+++++-++-+--+-++-+------++++++--++++-++-++++-+---++--++++-+-+++-
-+---++++---+--++++-++++-++-+-++--+-++---++-+++++++++--+---+-++--+-+-+++--+---+++-+-+-+++--+++-++-+--+++----------+----++++-+-++++----++++--++++-+-+++--++-----++--+---+---++----+-+++++---
++--++++-++---+++---+-+-+-----+-++-+----+--++--+-+-----++---+++++-+-+---+++--++---+---+-++-------++++-++--+--++-++-++----+---+-+-+-+++++-+---++-+---++---+++++-+-+++++---+--+--+----+++-+++
+++-+++---++-+-+-+++++++-+++++-+---+--++-+---+++++++++--++--+-+-++--+++-------+-+-+-++-+--+----+-+++--+-+-+++++-+---++++--++-+-++++------+-++--+++----+-+-+--+++----+--+--+--------+++-+-+-
+-++-+-+++---+-+---++++-----+-+---+-+---+-++--+-----+--+++---+++---+---++++--++--++--+--++--+--+---+-++--+-+++--++-+--+++-++---+++++-+++-+++-+-+++-----+++---+---+--+-+---++++-+-+---++-+-+
+++++-++-++-++++-+-++++++---+----+++-++-+---+++--++++---++-+---+-++-+++--+----+-+-+++++---+--+-+--+++---++-+--+-+-+--+--+-+++-+++--+-+--++-++-++++-+-+---+++++--+++++--+---+++++-+++++++--+
+--+-----++-++--+--+-++---+--+--+-++-++-+++--+-++----+--+-+++--++++--++--+---++--+--++++--+-+-++++++-+--+--++-+-+-----+++--++-----+-+--++++++++-+++---+++----+-+---+--+---+++-+-++---+-++++
-+-+-----++--+--++++-++-+--++-++--+-+----+-+++--++-+-----++++--+---+-+++----++-+--+---+++-----+--+--++++-++-++--+-+--+--+-+--++---+++++----++-++--+-++-++--+--+--++++-++++++-+++--+++-+----
-------+++---++---+-++---+-+++-++-++-++------++++-+++-+-++--++++--++++-+++++--++---+++--+++++--++++-+++-+++--+-++-+-+---+-+---++-+---++--+--+-+-+++-++-+-+--+--+++++++++-++-+--++++-+-+-++-
--++--++++-+--+-+--+-++--+-+++--++--+-----++--++-++-+--++-++---+--++-+-+------+--++---+-++---++-+-+++++---+----++++-+-+-+-++-+------++-+++++----+--+--+-+-+-++---+-++-++-+++-+-+-+--++----+
+--++-+-+-+---++++----+++++-+------+--+++-++++-+----++---+-+-+++--+--+-+-+++-+++--++--++-+++++-+-+--+----+-+-++---+-+++++-+-+++-+---++-+-+---+-+----+--+--+-+-+----++-+--+----+++++---+-++-
--+-+--+-+-+++--+--++---++-++------+----++++--+++--++--+++++++--++--+-+++-++-++++----+-+++---+--++--+++-+++-++--++-+-++---+++----------+---++-+-----------+++-+++----++-+-+-++-++++++---+--
+--++-++--++---+++++++-+-----++-+----++-+---++---+--++-+---+-+++-+++------+--+-+--+++---++++-+---+--+--++--++++++++++-+++----+++-+--+--++-+--++-++-+++---+---+-----+--++--++-+--+--+++-+---
+-+-+--+++-++-++-+-++++++--+-++---+-++-++--+++++--++-++++++-+-+-++++++--+++-++++-++---+--+-+++-++----+++-----+---+-+-+-----+--++----++++--++--+-+++---+++-++-++-+++-++-+-+--+++-+--++--+-++
+----++--++-------+++-+++-+++---+++++-+---++----+-++-++-+-+++++++----+-+---+-+-++++-+-+-+---------+-++-+-+----++-++-++++-+++-+-+-++--+-+------+-++---+----+--+-+-+-++--++++++---+++--++-++-
+++-+-+--++--++++-++-+++++++-++--++--+-++-+-++--+---++----+-+--++--++++-++-----++++--+++--+++---+---+++------++-+--++-+---+--+++++++--++-+-++-----+-++-+-++---++++++-+-+-++-+----++-++-+++-
------+-+-+--+-++----+--+-+--+-+--+---+-+--+--++++----++++-++++-----++-++--+---+-+-+-+---++++-+--+--+---+-+-+-+---++-+++-++--+-+-+--++++-+-+++-++++-+-+---+-+++--+-+-+-++---+------++++-++-
++-+----++--++--+-++-++-++---+++++---++++++---+++++----+-+-+-++++-----+++---+-++++++--++--+--+-+-++-+++++--++-+---++--+++-++---+-++-+++++++-+-+---+++++----+-+-+-++--+-----++--+---++-++-++
----++++-++-++++++++--+-++-+++---+-++-----+--+-+--+-+-+++----+---+-----+++++-+-----+----+++-++--+++-+--+-+-+--+-+++--+-+---+--+--++++++-+-++---+-++---+--+++-+++++-+---+++--+--+-++-+++--+-
+++-++++--+++----+-+-++-++-+---+-++-++++-++-+-++-+-++-++---+---+---++-----+++-++----+-+-++--+---+---++-+++-+-+--++++--+++-++-+--+++---+++--+-++-+++--+-++---++-+-++-+--++--++-++-+-+----+++
+-++-----+---+-++-++-+++-+++---+--++-+--+---+----+++++-++-++++++++-+-+-+--+++-+--+--+--++-+++-++---++-+-++++-+++--+-+---++++-+++----+-+--+++--++--+-+--+-+-++-++-+++----+++------+-+--++-++
-+-------++-+++++-+-+-+--+++++++---++-+--++++-++--+++-+---------+-+-++--++-++--+++-++-++-----++-++--+++-++--+--+++++++--++++-+++++++++++++---++------++--+---++++++-++++-+++-+-++--++-+++++
--++++-+++++++---++-+++-+-+----++----+-+--++--+++-++-----++-+-+-+++-+++++-+++-+-++++--+-+---++----+--+-+++--++--+--+--+++-++-++++++--++-+-------+---++-+----+--+++++-+++---+++--+-+--++-+-+
+-----+-+----++++------+-++--++-++-+++-++----+--++---+---++-+-+-+-+--++----++---++--++++++++++-++-++--+-+-++----+--+--+-++--+--+--+--+-++-+--++++++++-+-++-+++-+-+++-++-++-----++------+-++
--+++--++--+++-++-+-++--+-+---++-+-+-+-+-++-++--+--+++++-++--++--+----+-----+++--++-++++--+++++--++---++++-+---++---+-+--+---+---+---+----+++-+-+--+-++++--+--+-++--++---++---++--+-+-+-++-
+-----++++---++-+---+--------++++----+++++++----+--++++-+++--+---+--++---+---+---+-+-----+-+++++-+++-+++-+-+------+-++++-++--+---+-+-+++-+----++--++--+--++-+---+-++++-++--+---++----+-+-++
+++-+++-++++-++---+-+---+-+++--++--++-+--+-++---+--+++--+--+++--+++-+-+-----+---+-+-+--+-++--+--+-++++-+-+--+-++----+--+++++--+-+---++-+++-++-++++---++--+-++-+++--+-+++-----+++--+--+-+-+-
++-++--+++-++++++-+-++-+-+-++---+++++-+--+-++--+++--++-+++-+++++---+++++++--++++++-+------++++-----++--+---+--+++-+-+----+++-+--+-+-+------+-+++-+-++--++++--++-+--+-+--++++++--+----+++++-
+-++-+++--+-------++--+-++++-+---+--+-++----+++---+++++--+++---+++++-+---++++--+-++--+++---+-+----++----++++-+---+--+--+-++++---++--+++-+---+--+-++-+++-++---+-+--++++-+-+--+++++++++--+++-
-++----+++++--+-+-++--+++-+-+-----+-+----+-++-++----++++---++++++-+++--+-----+-++--++--++--+++++--+---+-++--++-+-++---+--+-+--+-+-+++-+++-+++++-+--++---+--++--+-----++++--+++----++-++++++

*** Life<FredkinCell> 16x36 ***

Generation = 0, Population = 104.
-------0-00-0----0--00---0--0-------
-----0-00-------------------0-0-----
----------00-00--0------0-------0---
-------0------000--------------0----
---------00--0-----------------0---0
-------------0--00---0--------------
-----0---0-----0-------0---0--------
----0-0----0---0--00--------0-0-----
0--0-0-------0----------0-----------
0---------000-------0---0---0------0
----0----0-----0-----00----0--00----
00--00--0-------------0-----0--0----
----0-0----0000--------0--0--00-----
----0------0----0-00-----------0----
-------0-000------------0--0--------
------------00------0-----0------0--

Generation = 90, Population = 321.
+-++--++++++-++++--+--++++--+---++-+
+-+-+-+-+-+-+---+++--+++++++--++-+--
++--+-+-++9+++----+-++-+--++-++-+-++
+++----+-++--+-++-++++-----++++--+++
++-+--++--+-+--+++++-+-+--+-++++++-+
+-+-+++++++++--+---+-+-++++++-+--+-+
-++--+-+-+++-++-++-+-+-+--+--+-++-++
+-+-+-+----++++-+++++---+--+--++++--
-+-+--+++-+-----+++-+--+-+-++----+++
-+--+-+--+++---+-++++-+-+---+-+--++-
+++-++-+--++++++++--+------++-+++---
+-+-+--+++-++++-+--++-+-+----++---+-
--+-++-+--+++-+-+-+++++-++++--+----+
-++++++-+--+----++---+-+-++---+--++-
+-+----+-+-+++--+++++---+--++--+-++-
+-++++++-++++-+-++++---++-+++++-++++

Generation = 180, Population = 299.
+++--++-+++----+----++-+---+-++++--+
++-+++-+--++++++++++++---+++---+-+-+
+--+----+--+--+--+++-+++-+---+-+++++
+--+++-++++-+-+-----+-+---++-+--+---
+++---+--+++---------+++-+---+++-+-+
+-++-+-+++++---+-----+--+--++++---+-
++++-------+++-+-+--+--+++++++++++++
-+--+------+++++-+++--++++----++++++
+----++-+-++----+-+++-+-++----+---++
-++----++-+++-+---+++++--+-++-++++--
++-+++--++-+-+-++-+++--+++------++-+
-+++++++-++-+-----+-++++++-+-+++-++-
--+---+-+--+-+--++-----++-+-----+---
+--++++---++-+-----+--+-+---+--+-+++
+---+--++-+++++----++++++++-++-+--++
---+-+-+++---++---+++++++--++++---+-

Generation = 270, Population = 279.
--+---++-++++-----+-+----++++--++-++
++++--+---+++-+-+--+---++---+--+-+++
+-+-+----+-+-++++------------++----+
++++----+--++-+++++--+--+-+--+-++--+
-+----++-++-+-----++-++--++++-+-+---
++----++-++++-+-+-+--+-+-++--++---+-
-----++++--++-+-+-+++-+---+--++-+-++
+-+----++-++--+-+--++++---+--+--+-+-
+-+++-++---+--++--+++--+++-+-+--++--
+--++-+-++-+++--++-+---+++-+-+----+-
+--++-+----+-++++-+---++---+-+-++++-
+-+---+-++++-++-+-+--+---++---++-+++
--++++--+--+--+--+-++----++----++-++
-+++-+----++++--+++++--++++---+--++-
--++-+++----+--+-+++-+++----+-+---++
+--+-+++-+++---+++++--++-+--+----+--

Generation = 360, Population = 301.
+++-+---+--+++++++----+--++--+-++++-
-++++++-----+++++-++-+++---+-++-++--
--+--++---+-++-+----++-+--++++++++-+
-++++-+-+++-+++-++--+--+++++-+-+----
++-+-----+-+---++-+--+++---+++-+-+++
-++--+-+++-++++-++-+++-+--+-++-+++++
+-++++--+-+--+-+-+-+-++-+-++-++-+++-
---++-++-------+--+---++-------+-++-
-+++----+-++-+--++-+-+------+-+-++++
--++----++-----++-+-+++++++--+----+-
+---+--+--+-++-+++---+-+----++-+-+++
++++-+++++-+-++++---+-+-+--+-+-+--+-
---++-+-+++-++---+++++-+-++++----+-+
++---+-+----+--+--+++-+-----+--+----
+-+++-++-++-+++++--+--++-+++---+++++
-+--+++++--++--++--++-+----+-+-+++-+

Generation = 450, Population = 300.
--++-+--++--++-+---------+-+--++++++
-+--+-----++++---+-+--+-+--+-++--+++
+++++-+++--+--+-+--++-+--+-++-++-+-+
--++++-+---++++----+-++-+-+-+---++++
-+++-+-++-+++-+---++++---+--+++-+-+-
-++-+--+---+-++++-+--+--+-++----++-+
+++--++--+++---+---+++++-++++-+-++++
-+--+--++-+++---++-++++--++++-++-+++
++++---+----+-+--+-+--+-+--++-++-+-+
+-++-++-+---+-+-++++-----------++-+-
+++--++++-+++--+-+-++--+--+---+-+-+-
-++-+++++-++---+++--+++++++-++++--+-
+--+++-++--+--++------+++-++----++++
+++++--+++-+--+++---++-----+-+++-+--
+-----++---+---+++-++++------++--++-
--++++++--+----+-+-+--+++-+++---++-+

Generation = 540, Population = 276.
---++-++++--++--+--+---++-++-+-+++--
+-++---+-+++---+++---++--+-+--+----+
+-+-------+-+--+-+-++-++++--++-++--+
--+--++++++-+-++------+-+-----++++++
++-+-++++-++++-+-+-++-----+--+-+-+++
-++-+---++-++--++----+--+----+---+--
-++-+++--+-+-+--++++--+---------++++
--+--+++-+++-++++--+++-+-+--+-+--+++
-+---++-----++----+-+-++-+--+--+++--
+---+-+-+-+++-+++-++++--+--++++--+--
++--+++-++++-----+--+-++--++--+-+++-
----+-+-+++++++--++-------------+--+
-++++---++--++--+---++----++-+++++--
--++-++-+----++-++-+--++++----+-++--
----++---+--+-+++-+++--+++-+-+---+--
--+--++-++-+-+--++-+++---++++-+----+

Generation = 630, Population = 284.
--+---+++--++--+++++-+--+++++++-+--+
-++++--++-++++++-+-++--+--++-+-+++--
---++-+----+-+-+-++++--++++-+---+-+-
---+--++++++-+-++++++-+++-----++---+
-++-+-+++++-++++-+--++---+-++---+---
+-++-+----+----++++-------+--+++----
++-++-++-+++++-++-+-+---+-+--+++----
--+-++++----+--+------+---++-+-+---+
+-+-+-+--+++--++--+++++-+--+-+-+-++-
++--++++-+--+-----+-+----+++---+++++
+-+-+-+++-+--+--+++--+++------+-++++
++++++--+--++----++--+++++----++-+-+
-+-+-++-+--++--+-+---++------+-+--+-
++---------++-++--+++-++-+-----+-+--
++----+-----++-+-+++-+--+-++++-+++--
-+++-----++++-+-+--+---++-----++++--

Generation = 720, Population = 273.
+-+--+++-+++-+--+-+--++---++------++
+-++++++--+-----+-+--+++--+-++-----+
--+--+-+---+-+-+--++---++-++-+++-+-+
++-+-----+++-+---++++++-++---+---+-+
+++--+-----+-++--+++-+-----+------++
--+++--+++--+---++---+--+--++-++-+-+
-++++-+--+--++++--+++-+-+-+++-+----+
+++-++++++---++-+-++++-++---++---+-+
+-+--++-+----------++++--++-+-+++-+-
++-+-++-++-+-+--+-+-+--++-+--+-+++--
+--+++-+---++++---+--++-------++-+--
+-+---+--+-+--+--+-++--+++-++-++--+-
+++---+--+-++-++--+--++++--++++---++
-+-+++++-+++-+-------+------++---+-+
---+-++-+-+---+--+----+--+-+-++-+-++
-+--+-----------+-++-++-+-+++--+--++

Generation = 810, Population = 286.
++--++-+--+-+++++-+--+++-+-+-+-+--++
++++-+-++-+++--++-----++---+-++-+++-
+----+-++---+++++++----+--+++--++---
-+---+------+++++-+-++-+---++--+--+-
++++++---++-++--+++--+++-+++++--++--
+-++-+---+-+--+----+++---++--++-+--+
-+--++-+++-++--+++--++--+----++++--+
-+-+--+-++-+---+---+-+-+-++---+-+---
-+++--+-+-++---+++---+-++--+-++--+--
--+++--+---++-+-+---+-+-++--+--+----
---+--+-+-+-+---+-+-++----+-++-----+
-+++++++-+-+++++--+-+-+--+++--++++--
+++-+-+++---+-++++-+++-+----+-++-+--
+++------+-+++++-++-+-++-+-+--+--++-
-++-++-+++-+--+-----+++-+--+-+-+-+-+
++++++-+--+--+-+----++----+++----++-

Generation = 900, Population = 297.
------------+-+-+++++-+-+--++-+---+-
-++-+-+--++-++++----+-+---++-----+-+
-+--+-+-++---++--+--+----+++++--+-++
+-++++++-----+--+-+++-+------++-++--
-+++-+++++-++++-+-++++-+-+++--+-+---
-+-+++++-++--+--+++-++-++----+-+-+++
-+-----+--++++++-----+++++++--+++-++
++++-+++-++++-----+++-+---++-+--++++
+++++-+-++++-+----++-+-+++++++-++-+-
+------++---++--++--++--++--++++-+-+
-+--+---+---+--+--++--+++---+-++--+-
++--++--++---++-+--++--++---+++-+---
-++++++-++--++-+-++-+-++-++-+-+-+-+-
+--+++--++--+---++++++---++-+-+++--+
-+-+-+-+-+++-++--++-+-++-+-----++--+
----+-+++-+---+-++--+++++-+--+-----+

Generation = 990, Population = 281.
--++-++++--++-------++--+-++---+-+++
+++++++--+-++-+++-+--+++----+-+++-++
--++-+--++-+-+-+---+---++-+--++---+-
-+-++-+-++---++--++-++-+-+--+++++++-
-+---++--+++--+-++--+---++---+----++
+++-++-++-+--+-+++-----+--+----+-+--
----+++-+-+++++++++++----+--++++-+++
--+-++-++-----+-+++-++--++--+++---++
-++---++-+++---++-++++-+-++--+---++-
---+--+-+-+--+++-++--+--+-++-------+
-+----+--++-+-++--+--+++++-++--++-++
-++++++-++--+-----+--+++--+++-------
+---+--+--++-++--+++-++----+--+-+---
-++-++++++---++--+-+-+++----+-+--+-+
++-+------+----+-+-+--+++----++-++++
+++++---++-+------+---++--++--+----+

Generation = 1080, Population = 287.
++-+------+-+-++--+++++-------+++++-
-----+----++++--++-+-++-+-+-+--+----
----++-++++-++--+++-+-+++---+-++---+
++++--++-++---+++++--+-++---++-++--+
---+-+--+-++++++----++-----++--+-+-+
------+++-+-++--+---++++---+++++-++-
+++++--++-+++++++-+++++---+-+---+-++
+++--+-+--+-+++-----+--++-+---+----+
+++++++--+-+---++-+++--++-+++++++--+
-+-+---++++++++--++-++-+------+--+++
-+-+-++-----+--+--+--+++--++---+-+++
+-++++----+++++-++-+-+--+-+-+--++--+
---+++---+-+--+++-++---++-+--++-----
--+++------+---++++-+---++-++-+---++
-++---+----------+--++---++++++--+--
++++-+-+---+-+-++--++-+-+++--++-+--+

Generation = 1170, Population = 274.
----++-++++-----++-+++-++---++--++--
-+-----+-++-++----+-+-----+-+-+---++
--++---+-+---++-++-+-------++-+-+---
----++--+-+------+-+------+-++++-+--
++++--++-++++++-+++-++++-----++---+-
-----++--+---++--+--+----------+-+++
++-+-+++-++-+-++-++-+++++++++-+---++
++++-+---+++--+++++-+--+-+++---+--+-
----+-+-+++---+++----+++-++-+++----+
---+--++--++++-++--------++++++-++-+
-++-++++--++++--+-+-++--+-++-+-+++--
+++--+++-+--+-+-++---+++---+--+--+-+
+--+----+-++-++++++-++++--++-+-++-++
--+----++--++++-++++--++----+-+---+-
+-----++--+-----+-+-+-----+------+++
--+++-+-----++----++++-++++-+-+-+--+

Generation = 1260, Population = 288.
+-+++-++--+--+--------+-++-++++--++-
--+-+++-------+++++++++++-+----+----
--+-----++++---++-+-+-+-++--+---++--
++++-++++--++++++-+-------+--+-+--+-
++-++--+-++-+++++++++-+++-+-+-++---+
---++-+--++-+++--+---+-+++--+++--+-+
--+++-+++++++-+++++++-+--+-++-+-++--
+++-+---+---+-+++-++--+++-++--+-+++-
++-+-------+-++---++-+--+---+-++-+--
--+++----+---+-++-+-++---++--+-++-++
--++-+++-+-----+-+++-+-+++++-+++---+
----+-+-+-+-----++--++---++-++---++-
--++-+-+-+-+--+-+-+++++-----+-+++-++
---++-----++-+--+++-++-+++-+---++-+-
--++++-+-+++----++-+--+++---+++---++
+-+--+---+---+-+-+---+-+-+++--+---+-

Generation = 1350, Population = 285.
---++------++-++---+-++-+--++-+-+++-
-+---++++-+---++---+--++++--++++++++
+-++++--+++-----++-+-++-+-+--++++--+
-++-----++--+++-+----+++-+-+-+++-+++
++++-----+++-++++-++-+---+++++--++--
++-+-+--++-----+-++++-+--+-++-+--++-
+---+----++++-+++-++---+-+--+---++++
---+----+-----++---++------+----+-++
++-+----+-++--++++--++--++++-+-+---+
+-+---+-+++++-+---+--+-++-+++++---++
-++---++---++-++++-++-+--++---+-++-+
----+-----+++---++-+-+-++--+-+-+---+
-+++----++-++++----+-+-+++-+++--+++-
----++--+--++--+-+-+++---+-+---+-++-
-+---+--+---++++-+-+-+--+-----+---++
+++--+--++---+-++++++--+++---+-+-+++

Generation = 1440, Population = 291.
++--+--+-++---+++---+---++----+--+-+
--+++-+----+--+-+---++--++-+--+---++
---+--+-+--+-++-+++--+-++++-++-+-+++
-+-+-+++--+++-++++--+--++----+-++---
++----++++--++++-+--++-+--+--+++++--
+++++++++---++++++-++----++++---+++-
+--+++---+--+--+-+----+-+--++-+--+--
++-++---+--+++---+++++-++--+++++-+--
-+--+--++-+-+--++---++++++-+++++++--
+---+--++-+--+--++-+---++-----+++---
---+-+---++---++-+--++-+---+----++--
-+---+++++-+++-+--+--++-+++++++++--+
+++-+-++--++-++-++-----++-+-+-++++++
+++-------+--+---+--+---++-++--++++-
-++-++++++----+-++-+--+--++---+--+++
++-+-+-----+-++--+-+--+-++++-+--+-+-

Generation = 1530, Population = 290.
-+-++++++++-+++-+----+-+++++++------
+--------+--+++-++++-+--+-+++--+-+-+
++---+-++-++-+++--+--+---+--+-+--+-+
-+----++-+-+----+-++++++--+--+-+--++
+-+---++-+-+-+++-++-++-+-+-+----++-+
-+-+---++--+--+++++-+-+--++-++-+-++-
+-++-+--++---+++-+----+---++-+-+-+--
---++--+-+++---++--+++-++++-+++--+-+
+++-+----+++-++++-+--+-++--++---++++
++---++-++--+--++++---++-++-+-++---+
++++---+++-+-+++--+-+-+-++-+----+++-
++----+-----++---++----++-+-+-+---++
+---+--+-------++--++++-+-+---+--+--
+-+-+-+++-----++---++-+++--+-+--++--
++---+++-++-+++-++++--++--++-++--++-
-+----+-+-+++--+--+-+-+++++-+--++--+

Generation = 1620, Population = 276.
+-+-++-++-+--+--+---+--+-+----+-+---
+---++--+-++--+-++++++-+-++-----+-++
--+--+++-+-----+-----+-++++----++-+-
---+-++++-+--------+-+-+---+-++-++++
++---+++--++-+--+-+-+----+--+++++--+
--+++-++++++++--+++-+-++--++-+++-+-+
++-+---+--------++-----+++++++--+++-
-+-+++---+-+-++--++-+--++-+++-+---+-
+-+-----+-+++---+--++-----+-+++-----
+-++--++-++++---++---++-+-+-----++--
-+-+++-+-+-++++-+----++-+++---++----
-+++--+++---+--+++++-+++-+-+++++---+
+--++--+-+++-+-++---++---+----+-++++
++------++---+++---+++++++---+-++---
++-+-+++----+-+-+-+-+--+-+--++-+----
-+----+---+---+++++--+++--++-+-+--+-

Generation = 1710, Population = 281.
++++-++-+++-++-++--+-++-+++-------++
+--++-+--++++-++--++++++-+--++-----+
++------+-+-+-+-----+-++++++-+-++---
-++---+-+-+++----+-+--++--++----++--
-+--+--+--++++++-++-++++++-+-++-----
---++---+++-++---+-+--++++++++--++--
---++--++++++----+++-+--+--++++--++-
++-++-+----++--+--++-++--++-+----+-+
+++---++--+-+-+-+++-++-+--+--+--++--
+-++-++-+----+---+----++--++-++++-++
-+++++--+++---------+-------+--+-+--
--++++++++-+-+++--+++---+-+++++----+
+--++++-++-+++-+-+-++--+-+-+-+-+----
-+---++---+-++-+-+----+--+++++-+-+-+
--+-+---+--++--+-----+--+-++-++-----
--+-+-++-+-+--+---++-+-+--+--+++-+--

*** Life<FredkinCell> 25x25 ***

Generation = 0, Population = 73.
---------0--0000--------0
-------------0-----------
-------0--------0--------
------0---------0-0---00-
--0------0---------0-0---
-000---------00--0-0----0
--------0----------0---00
----0-------------------0
-------0------0----0----0
---0------------------0--
--0-----------0----------
---------0------00-------
-----------0-------0-----
-----0-------------------
---0---0----------0-0----
-----------0---------0---
-----------0---------0-0-
----------0----0---------
----------0-0---0----00--
----------------0--------
----0--0----------0------
--0-----------------0----
-------------------------
----0--0-0---------------
---0------------0--------

Generation = 1, Population = 203.
--------0-0011-10------0-
-------0-0---1-00-------0
--------0----0-0100---00-
--0--0---0-----01-----110
--1---0-0-0--00-00-1---00
01110---00--01100---00--1
-0000--0-0---00--0010-011
---0-0-00-----0----------
---00-0-0----0-0--0-0-001
----0--0-----------0-0-00
-0-------0---0-000----0--
--0-----0-00--001100-----
-----0---00-0---000-0----
---00-00---0------000----
--0-000-0--0-----0-------
---0---0--010-----0--100-
-----------10--0----01--0
---------01-0-0-------00-
---------01--0--10--0110-
----0--0--0-0--0100--00--
--00-00-0-------00-00----
-0-00--0----------00-0---
--0-0--0-0----------0----
-----00---0-----0--------
--0----0-0-----0-0-------

Generation = 2, Population = 202.
---------01------0----0--
------0----0---11-0---00-
--0--0---0--01-1--10-0--0
-0100---0-------2000-0---
0---0---1--0----11---0--1
12-2-00----01----000-1-0-
--1---01-10---1--1---01--
-0----0------01--0-0-----
--0--0--10--0-0-00-0-011-
-0--10---0------00--0----
0---0--0---00-0-1-------0
---0-0-0---1--11--11--0--
--00---0-1---00--11-10---
---1---1-0-1----00---0---
-0-------0------0-000000-
-----0---01--0-0---0---1-
---0---0-00-10--0-001-00-
--------0--010--00---0---
----0--00-200------012--0
--0-------1---01--1-0----
--1--11--00-0-------100--
0------1-0------0-1---0--
---01--1--------0-0------
-----110-0-0--------0----
-0-0-0--------0-0-0------

Generation = 3, Population = 306.
------0-012----1-----01--
--0----0-----10-201----1-
--1-------0-12-21-2--1---
-12----01--000---11---1--
10101-002001---0-20-0-0--
-31-01--00--211--1-1--0--
00----12-21-0-200---0-2--
0-0---1-0-0--120---10--0-
-0-0-1-02-00-01--1-101-21
---0--00-100---01-0---000
----1001000-1-102-000-00-
0--10---0002--22---2---00
-011000--20-01-----02----
-0-20-02----0000--000--0-
0-00-0-00--0-0--1011-1--0
-0-00-0001-1-1--0-0-010-0
--0-000-0--1-10-1011211-0
---00--01-1---00-1--01-00
--00-001---1--0010-12-10-
-01000000----01210-0-00-0
0020022-0----0000--0---0-
-00000-2-1--0--01-200-10-
0-012---0--0---01-100-0--
-0----------0-0----0-0---
0----1-0-0-0-0-----00----

Generation = 4, Population = 199.
--0--0-01-30-1---00-012--
-010-----0----1----0----0
---0----00-0-303---00--0-
--3-0-----0-1-0---200-21-
2----011-1--0----3-1---0-
14-2-200-10----0-20-01-0-
--1-0--3----1-311--11-3--
1-----2-10-------00-1--1-
--01-----01----0--0-1213-
-001-0-1-----00--010-----
0--0--121-1--------11--10
----10-----30-------0---1
-----------0--0----1-0--0
-1-3-----00----1------0--
--11---1--010--------2--1
-------1-2-----0---------
----1------2---0-12----0-
--0--00----0--1----01----
---1--120---0-1-21------0
----1--1-0-00-------01---
1-------1-----1-1----001-
0-----0---0----12-------0
---2------0-0--------01--
0--001-000-0-0--0--------
----0-------0-----0-1----

Generation = 5, Population = 322.
--1-0--12141----01101-300
012-00-001---12--0-1000--
-011---01-0-14-41--1-1-1-
01-0--0010-0201---3---320
3-10--2--201100014-200--1
-51-0-11--10---10-1--2011
---0--14--10--42210220-1-
-0-000-02---0-2--1-1--020
0---0100--20-0--01-1----1
-112--02-1--011-112-000-0
---1-0232---101--0---002-
0---21-00---102----21----
-0-100---2-1-1----1-2--01
0-040--201-10---0--0-0-0-
--2-0-0200--10------0--0-
--000-02----0-01000--1-10
--00--00-0031--1-23-2-1-0
-0---1--1-11-02-0--121-00
-------31--11-2-3201-2-0-
0----0-2---1-0---0-01--00
20--0-2---0000-020-----2-
10-0-0-201100--2-0-------
--03-0010-10---0----01200
-00-12-1-10---00-00-000--
0---1--000------00---0---

Generation = 6, Population = 292.
0-2-1-0-32-2110112-1-1--1
1230-1-1--00--3-211211-10
012--0-12--0-5-52--202-2-
----00-12------0---00043-
4----0-1--1-211125-3--00-
-6----2-0-21-1121-2103-2-
---10--5-2---0-33213----1
----1--130-0-13-0-0---13-
-001-211--31-110-202-2---
-2---0130---------3011-01
00-21-3----02-20-1-11-13-
---1-20--------2-1-3--0-1
0-1---0-03-2-2--01--3-0-2
-1-51---12---0-1-0-------
00------1-0-21-0-01--20--
-011--13--1--112-1-00-0--
--------0114--02---13----
0--00--020-2-1-0110-3-0--
00----1--0-22-3--3-2-3--0
1-----03-----1-21-1-2-011
3-2----01---1----1001-03-
--0101--1-----0-212-001-0
00--21----2-----1-10-23-1
-1-0--1------01-0-1-----0
--002-0-------0-1----1---

Generation = 7, Population = 336.
1030-0-1434---1-2-12123-2
23-102020-11-14-32--22---
-2-----2-0-1--0----3-30--
-13011-2-0002---213111540
-----1222221322-360-00-11
--120----1-2222-2----403-
-012-0-6-3--1--------031-
-0002--2--01-2--1--1--24-
0--20-222-4---2103--13--1
-------4110-01---1--2-0-2
1---2---2-113-3--202-0--0
-0-2231000--10-31--410-02
-0-10-1------300121---1-3
020620022--1---20---00--0
11--0-0-201-320--12--3-0-
---200240-----23-20--111-
000-1-00-22-11-3----41---
1-0111-1311-1----21-41-00
11010023-1--3--034----1-1
--1--0---0-10-132-2-31-2-
4-3-02---0-0--102---201-0
----1-0-211-00---23--1201
1--3----00-0-0-0-0210----
-2011-21--0-01----2---001
--113-10------1-200-1-0-0

Generation = 8, Population = 203.
-1--110-5-----2-322-234--
-43--3-------25--3-2-30-0
--------21----15---4-4--0
0-----0-211----0-2422-65-
-0--1--3--3--3--47-3-1-2-
---3122---2--3--3-2--514-
0--3---7-4-0204----32--21
--1--------20---2-0--0---
------3--0--013-1-0--41-2
---2------10-210----3----
----3-33----4--------1---
-1----2-11-------11---013
--121--0-3-2------2--0-0-
---7----------0--0-01---1
---1----3-214--0---1--01-
---3---5-2---1-----0-2--0
-------1-----2041--1-2--0
--12---2----------2---01-
---21---1----0--4-0--3--2
----1--30-------30------1
--4-------011--1---0----1
--0-21----2-1-------0-3--
---42---------------1----
-31--------01--000---0---
---2----0-0-0---3-----101

Generation = 9, Population = 306.
12-0221--3----3-433234-02
2-41-4---1--036--41324--1
022--002--------2---050-1
----11-2-2-0-0-12---3-7--
--1-2-2----1342----402--1
161-2-31--3----242-1---5-
-0-4-0----1-3153--1430--2
10----22--0-12-03-1--1-4-
--02-2-22--1-2-12-12--2--
--1----4--21--21--30-10-2
-0-----4-01---30-20----30
0--2-33-2-031---12-4-0124
--2320--04--0-0--23---113
-------2220-00--0-0-2-00-
--2-0----03-5---112---121
--140-260--1-2--0-0--3--1
--0---0-02--1---22-2-3--1
-02---03------20-23--1120
-----0-321--3-3054122---3
--1-2004-01101---1-0-1-2-
-050-2-010---01--10---132
-011-20--13020-2----1--01
-005------20---010-12-3--
04211---0--1-111112----01
-0--3--0---010--4-----2-2

Generation = 10, Population = 294.
-33--321544-1-4-54434--1-
----0-0202111--13-24-5---
-----1--2--11-1-3-2-16--2
01-0---3---12112-2----85-
4-2--133-2---531-70-13---
27-332-2014---2--32-0-1-1
0-1-0-1--4---2-43--5--32-
2----03--012-331---1-22--
0--3--3330420332--2-143-2
--2--01-----0--2--4--2-03
---2-0-5212140--2--2--1-1
---32-403----0--23---12-5
0034----1-0--3-01---3-2--
---7-0033---11-21-----111
-131100-3--162-02-310--3-
-02------2----23--1-04---
----10---32---0----------
11-2----3----1---3-1----1
-1---1-4----40-1--2333104
--203--5-1--1-13---13-031
4---0----10-112-2-1-2-2--
11-2--1---41--03--3-213--
-1-6-10-0--1---12-22---0-
1-32-2---1--1--2-23-0-01-
-1--411---0-----5-0--1-03

*** Life<FredkinCell> 50x50 ***

Generation = 0, Population = 149.
--------------------------------------0-----------
------0-----0----------0--------------------------
---------0-------0----0---------------------------
--------------------------------------------------
--------0------------------------0----------0--0--
---------------------0--------------------------00
-------------0-------------------0----------0---00
-0------------------00-------0---0---0-0---------0
---------0-----------0----------------------------
--------------------------------0-----------------
-------------------------0------------------------
--------------------------------0-0---------------
-----0------------------------------0-------------
---------------------0----------------0----0------
--------------------0--------------------------0--
-----------------0--------------0--------0--0-0--0
0-------------------0--------0----0------------0--
------------------------------0----------0--------
---------0----------------------------------------
-------------------------------0------------------
--------0------0--------------------0---------0---
---0-------0---------------0---------0------------
------------------------------0-0---0-------------
-----------0-------------0-------0----------------
----------0--0-------------------------------00---
--0-------0-------0--0----------------0-----------
-----0--0-----------------------------0-------0---
--------------0---------0-----------0----0--0-0---
------0-------------------------------------------
-------------------------------------------0-----0
---------------------------------------0----------
---0--0--------------------0---------------------0
--------------------------------------------------
------0---0-------0-------------------------------
0----0---------00----------------------------0----
-----0-------------00---------------------------0-
-----------0-------0----0---------0--0--------0---
----------0--------0--------0---------------------
---------------------------0-------------0-0------
----0-------------------------0------------0------
------0------0--------------------------------00--
---------0-----0---------------------0------------
------0-------------0-------------------------0---
---------------------0----------------------------
----------------------------------0---------------
-------------------------------------0-0----------
---------0----00----------------------------------
----------0-------------0-----------------0-------
-------------0--------------0--0-0----------------
----------0-------------0-------------------------

Generation = 200, Population = 1253.
+-++--++-+--+--+++-++-+---+++----+++---+-----+-++-
-+--+-+--++-+++---+++-+----++-++---++-++++--+---+-
+++-+-+--++++----++--++++-++-+++++++---+------++++
-++++---+++--+++-+----+---++-+++--+----+-+--+++-+-
+-+----+---+++-----+-+-+++++-+---+-+-++--+----+-++
+++-++--+-++----+--+--+++--+-+-+-----++---++-+++-+
----++-----+-++--+++++-----------++----+-++++---+-
++---+++-+-+--++++--+++++++----+-++---+++--+--+--+
+---++-+-++--++-+-+-+--+++++-----++--+-++--+++-+--
++--+-+--+-++--+++++-+-+---+-+--+---+---++----+---
-++++-+++--+++-+++-++-+-+-+-+++---+++-+-++-+---+++
--+---++--++--+-+-+++++--+---+-+--+++--++-++++++-+
----+-+-+--++---++-+++-+-++--+++-+++++---+++---+++
--++---+-+++-++--+-+---+-+-+-+--++-+---++++-++-+-+
----+++-+---++-+-+-+---++-++-+-+++---+--+-+-----++
--++---+-++-++++-+---+-++---++-++-+--++----+--++-+
++--------+++-++---+----+-----++-+--++---+++--++--
+++-------+-----+-++--+-++-++----+--+++-++++-+----
++-++-+-+--+--+-+++-+++-+-+-+-+--+-+--+--++++----+
-+++----------+-+++++--+-++++-+++---++-+----++++--
---+-+++-++--++-+++-++++--+-++-++--+-+-+-++-+--++-
-+-+++-+-+++-+---++-+-++--+++++++----++-++++-++-+-
++-+++-+-++++-----+----+++---+++-+--+-+-+-+--+-+++
++-+++-+++---+++++--++--++--+-++---+-++-+++++-+-+-
+------+---++-+-----+++-+-----+++++-+-+--++++-++--
+---++-+-----++++---++--++--+-+--+--++--+-+++-+-++
+--+--+--+++-+--+-+++-+-+++-+-----++--+-++++--+-+-
-+++---++++++-++----+--+-+-+--+--+-+++-++---++++++
-+++-+++++-+-+-++++-+---++-++-+++--+-+++--+-+-+--+
+-++-----+----+++-++-+---++-++-----+++++-+++++-+-+
+-+-+--++--++-++--++-++-+--+-+------++-+-++----+-+
-------+-+--+--------+-+++++-+-----++-----++-++++-
-+----+-++----+-----+-+++++--+--+--+---+----++++-+
+--+++-+++++-+--++-+-++-+-------++-++--+++----+++-
+---+++---++-++-+-++-++--+-++--+++-+-++--+--+++-+-
---++-++++--+--+--+++++-+++-++++---++++----+-++---
---+-++++-+-++-++-+---++++--+-----+++++-++++++----
+--++++--++++--++---++-+++-+----++----++----------
+++---+---+-+--+-+-++-++---+-++--+-+----+----+-+--
++---+++-++-+-------+++-++++-----++--++-+--+++-+++
+-+-+++-+++-+-----+----++++--+-+++++-++-++-++--+--
++-----+--++-++-+-++-+----+++++--+-+-+-++--+----++
-+++-+-+-+--+++-+--+++----+--+---++----+++++++-+++
+----++---+++++++---+--+---+---++++-+++----++-+-++
--++++----+--+-+-++-+--+--+--++-+++-+-++---+++-+++
-----+-++--++-----+++-+++++---++-+-+-+--++-+-+++--
++++----++--++++--++-+--+-+-+------+-+++--++-+--++
+-+++---++++-++-+-+++----+---++-+---++++++++-+-++-
-+-----++++-++-+--+--+-++-++++++--+-+-+++-+-++-++-
---+-+++++-++--++++--+-+--++-+-+--++-+++++++++--++

Generation = 400, Population = 1259.
-+-++--+-++-+-+-+-+----+++++-----+-+-+------+++---
-+++++-++---+-++-+++++-+-++-+-+--++-+---+-+++-++--
-+-++---+-+----++--------+--+-++---++-+-++++++----
---++++-+-+-+--+-++-+-+--+---+--++++++++-+---++++-
--++-+++-+---+--+--++++-+-++-++--++-++-+-+-+-+-+++
---++--+--+---+++++-+++----+++++++-+-----+-+-+-+++
----++----+--+---+-+++---+++-+----++---+----+++---
++++++-+----+-++----++---++++-++---+---+-+-+-+++--
-+--+--++--+--+-----++--+-++-+---++++++-++--+--++-
++-+-++-+++++--+-+---++-+-++-+---+++++++--++--++++
+----+-+-++--+++--+--+++----++--+++-+--++-+-++---+
-+++--++++++--++-++--+-+-+-+---++---++--++--++--+-
-+--++++--+---+--+--+---+---++---+-+-----+---++--+
+++--+---+---+++------+++--+--+--+++---++--+--+-++
-+++-+++-++-++-++---+-+-+---+++++--+++---++--+-++-
++-+-++---+++-+---++----++++--+---+-+++------++-+-
+++-+++-+-+-+--+---+++-+--++-++---+---+++++---+++-
+---++++--++-+-+++-----+-++--+-++--+-++--+-+-+--+-
+++--+++-+-+-+-+-+-++++--+-+--++++-----++++--+--+-
++-+-++-------++---+-++---+--+---+--------+++++-++
++++--+--+----+-++---++-++-++---++-++++-++++++++--
-++---+-++-+++-++-+-++----+-++-++-++++-----+----+-
++-+++++++++-+----+--++-++---+++++++++--++-----+-+
--+++--+----++--++++-+++-+--+++-+++-+-+-++-+++---+
+-+++-+--+-+-+-+-++---+++++------++++++------++---
-++-+---+-++------+---+++-+++++-+---++-----+--+---
++-++-+++++-+++----+++----+-++-+++----+++++--+-+--
-+-----++-+--++-++-+++-++++----+-----+++-+-+++-+++
-++-+----+--++-----++-------+-+---+-+--++-+++-++-+
-++-+++++++++-+-----+-------+-+-+++++-+-+++++++--+
+--+++++++----++++++----+++++-----++--+-+-++++--+-
+---+-++++++-+-------+---+-+-+++++---++-+-+++-++-+
--+++--+--++--++--+++++++++-++-+-+---+++++-++-+++-
-++-++---++-++---+---+-++--+-++++-+-++-+++--+----+
+++---+++++++++-+-++-+++----+--+--+++-++-+-+-++-+-
-+++--+----+---+-+--+-+++++++-+--+-+-++--+-++----+
--+--+--+---+-----+--+-+--+-+--+--+-+-+-+++++-+-++
++-+-+++--++---+-+-++++++--++---++--+++----+-----+
++++--+++-------------++-+-+--+-+--+-+--++-++-++-+
+--+---++++--+-----+---+++-++++++-+--++--+----+-++
--+++-++++--+-++--+-+-----+-----+----+----++-+---+
++----+-++--++++-++-+-+-------++--++-+-++--+---+--
-++--+++----++-+++-+--++-+++--+--+-++---+--+-++--+
-+++++----+--++++-++--++++++-++++-----++++--+++--+
++-+-+-+++++-+++-+++++---++++-++-+++++----+++++--+
+-++++-+-+--++-+--+--++++--+++-+++-+----++-+---+-+
-++-++++--++++-+-++-+--+-+--+------+--++-+++-+-+--
+-+-+-+--+--++-+++-+++++----++-+----+-+-+---+---+-
+-++++-++---+-+-+++--++-++--+---++++-+---+++++--+-
-++++-+-++-------+----++-+---+++-++--+-+-++-++++-+

Generation = 600, Population = 1253.
+---+-+--++-+++--+----+++-++----+-------+-+++-----
-+----+++--+-++--+--+-++-+-++-++--++---+---+-+-++-
--++-+++--++-+-----++-++-++-+++-+-++++++-+--++++-+
+++--+-+------++++-++-----+++---+++-+-+-----++----
++---+---++-+-++-++----+++-+-+-+--++------+++--+-+
-++-+----+++-+++---+-+---+--+--+--+++---+-++----++
+--++---+-++-++-++++++-+-+++-++-+-+---+-++-+++--++
+-++-+----+-++---+++---+-+-++---+++---+---++-+--++
-++++--+--------+-++---++-++-+-++++-+-+--+---++++-
+++-+++++++---+-++--++-+--+++-+--+--+-----++---+++
-++---+++--+-+-+-+--++-+-++--+++++-+-+-+--++-++-+-
+-+++-++--+-++-+-++++-++++--+-+---+--+-+-++++-++--
-+-+++++-----+--+-++-+--------+--++--+--+++-+-----
+++-+-++---++-++-+-+-+-+---+-+--+++-+----+--++----
+---+--++-++-+--++++++-+++++-+-++-+++---++----+-++
-++-+---+---++--++++--+-++-++++--+--+++++-++--+--+
-++--++--++-+--+-+----++-----++-+---+--+--+-++-+++
--+----+-+++-+++-+--++++-++-+-------+---------++++
---+-+++++----++-+--++-++-++----+-+++++-++---+-+-+
+----+--++-++++++-+-------+-+-++-+++++-++++---+++-
--++--++--+-+++-++----+-+++-+--+-+++-++++-+++-----
+-+----++-----+-+-+-++--++++-+++-++-----++--+++++-
++---+-+++--++++++++-+---+++---+-++--+----++----+-
+-++-+-++++------+-+-+++-----+-+++-+++-++-++-+-+-+
-++---++++--+--+--++--+++++-+----+--++++--+-----++
+---+--++++-++---+-+--++-+-++++-----+-+++-+--+++--
--++--+-+++------+++++-++-++----++++-+--+-------++
-+++---+-+++-+++-+-++-+-+--+-+-+-++-+--++-+++-+-+-
+-+--+--+-++++-++--+-++--+++--+-+-++--+---+-+++-+-
+--+++-+++-+-++++-++-+----++-++-+++--++-+---++-++-
++++---++++++++-+---------+--++--++++--++++-+--+--
-+-+-+++--+-+++-+--++++-+-++-+---+--++++++-++-+-+-
--++++-++------+++---++-+++--+-++-+--+-+-+++-+++-+
+-+-+--+++-+-+--++-+-+-++--+++-++-+--+-++--+------
----++-+-+-++--+++-+-++--+-+--+++-+-++++-+--+---++
+--++++--++++--+---++----+++-+--+--+---++-----++++
---++-++--++-+-++-+--+-++++-+------++--+-++-+++++-
-+--+-+--+-----+++++-+++-+-+---+--+++-+-+-++++---+
--+--++-++--+-+++++++--++-++--+----+--+++-----+--+
+++++++-++++---+------++---+++-+--+++++-+-+++---++
+++-++-++++++--+-++++--+---++-+++++-----+++--+-+--
--+--+++-++-+---+---++-+-+--+---+---+--++-+-++-+++
-+-----+++------+-+-+-++-++-+--+-++-+---+---+-----
-+++----+---++-+--++-++-++-++-++-++-++-+-+++--++--
--+-+--+--++--+++----+++++-+--+++-----+--++-------
+------+-----++++++-+-+--++++-+-++-++-+-+-+-+-+-++
++-++++-++++----++-+--++++-+-+-+++++++------+++++-
+-++----++---+------+--+--+++-+---++-+---+++------
+--++-+++----++++-++----+-+--+-----+++++-+++-+-++-
----++++-+-++++++-+--+++++--+--+-+--++---+---++---

Generation = 800, Population = 1207.
-+---++--++------+++++-------++++--+---+-++----+-+
+-+-+-+-++--++-+-+-++++-+-++-------+-+-----+--+++-
---+-+-----+++---+--++-+-+++--+----+-++---+-+++---
++--+-+-++++--++++--+-+-+--+-++------+-++-+----+--
----+-+-++-+-+---+++----+--+++--++---+--+++--+-+-+
+---++-+-++-+-+-+-++-++-+++-+-+++-+--++++++++---+-
--+++-++--+-+--+---++-------+-+--+-++++++-+-+--+++
-+-----+++-+-+-+++-+-++-++-++--++++++-++--++++----
+-+-+++-+--++-+++--+-++-++++----++-+++++--++-+--+-
+-----+--+-+++--++++++-+-+--+-+-----+-+-+--++-++-+
-+------++--+--++-+-----+--++-++++++++--++--+-+--+
++-+---++-++++--++-+++-+-++-++--+-+++++-+-++---+-+
+--+--++--++++++++---+++-----+++---+-+---+--+++--+
-+--+-+++------+-+++---++---+--+-+++++++-+--------
---+++-+--+++--+-+++-++-+++-++-++---+-----++--+++-
+++-++----+++-+------+-+--++--+++--+-------+--++-+
+--++++++--++-+---+---+-++-++--+-+------+-+---+---
-+++-++++-++++-+-++-+-+-----++---++-+--+-+-++---++
--+--++-+--++++-+++++++---+-+------+----++-+-+--++
-++++-++++---+-+--+++-++-++-++-+-+-+--+--+-+++++--
-+-++--+++-+-----++---++-+++--+-+-++----+-++-++--+
-+--+---+----+--+++++++++-+++----+--++++-++----+--
+-+--+--++--++--+++-+-++----+----+-+-+-+-+-+-++--+
+------+---+--+----+++-+++-+-+-+-----+----++--+---
--++-+++-+-++++---+-----+--+-+-++--+++-++-+++----+
-----+---++-+-++------+-----++---+---+-++--++--+++
-+++-----+-+--+----+-+++-+--+---+++-+--+++-++++-+-
-++----++--+-+-+-------+--++--+-----++-+++---++--+
+---++---++-------+----+--++--++-+++--+--+----+++-
++++--++-+-++--+-+--+---+++++----+---+++-+-++-++++
---+-++++--+-------+++-----++-+++-+---++++--+---++
---+-+++-+-++--+-+----++-+-++-++---+----+++--+-+-+
--+-++++-+-+-+---+-+++--+++-++++++-++++-++-+--++++
++-----+--++-++-++---+--+++---+-----++-++--++++++-
++-----+-++-----++-+--+--+-+--+-+-++--+++--++--++-
-+++--+-++++-+--++-++++++---+++---+-+-+---+--+---+
--++--+--+--++-+++-+--+++---+-+--++-++-----++-+--+
-+---++-++-------+---+-+++++++--+++--++-+-+---++-+
+-+---+++++++--++-++--+++++-----++--+++-+++--+---+
-+++-++-++--++++-++++-+--+++-+++---+-+----+-++----
-++-+-----++-++++-+------+-+-++------+--++-+-++++-
-+--++++-+--+---+-+--+----++-++-+++-+--++----+--+-
+-++--++-++-+----+-+------+--++++++-++-+-++--++++-
--+--+-+-++-++--+----+++-+-++-+--+--+--+-+++-++-+-
++--++-++++--+-++++++++-+-+-----+-+++--++++----+-+
+--+++-----++--+---++---++-+---++++---+-++-+-+----
++---+++----++--++++-----++--+-++---+-++----+--+-+
+-----++-++-++--++-++---+--++--++++-+--++-+-+-+--+
++++---++-+-+--+-+-++++---+++---++---+-+--+-+-++--
-+--++++--+-++++--+++-++----+-++++---++++--+--++++

Generation = 1000, Population = 1244.
-++-++-++-+-+--++-+-+-----+-++-+---+---+------+++-
++---++++--+--+-+-+++++++++-+--+++-+-++---+-+-+--+
-+-+--+-++++--++++-++-----+--++-+++-+-+++-++--++--
+------+-+--+--++-------+--++-+++---+-+-++-+++-+++
---+++------++-+----+-+-+-+---+--++--++----+-+--++
-+--++---+-+--+-+-+---+++++---+--++++-+-+--++++-+-
-++++----++--+++++--+--+++-+++-+++--+--+-++--+---+
-+++-+++-+-++-+--++-----++---++--+-+----+-+--+++++
+-+-+------++++-+-+-++-++---+-+--++-+-+-+-++++-+--
-+++-----+-++++-++++-++++++-++-+---++--++++-+-++--
-+--+--++----+++-++-+-++++++--+++++-+++-+-----++++
---+-+-------+-+++-++++++---++--++-+---+-++++-+-++
--++-+-+-+---++----+-++-----+--++-++++-----++---+-
-+----------+--+-+-+++-++-+-+---+-++-------++-+---
+--++--+-+-++--+----+-++---+++-+-+--++-+-+--+-+++-
+-+++----+-++---------++-+-+++++------++-+------++
+++++-+++++++-++-+-+--++-+---++++-++-++-------+--+
-+++++----+-+--+-+---++-++-++-+++---++-++++-++++++
--+--++++-+--+-+---+----+++--+---+++-+++---+-+++-+
-+--+-+-+++++-+++++-+-++----+-+----+++--++++++-++-
-+-+++-+-+-+++-+---++++---+--+--++++++--++---++++-
++---+--+---++++---+--+--++-+----+-++----+-+-+-+-+
-+--+--+--++++-+---+---++-++++++++-+----+--++-++-+
---+++-+--+-++++++++-++-+---+-++--++-++-+---+--+-+
--+-++-----------+-+-++++-++---++-++--+++-++-+++++
++++---+-+---++--+--+---++-+-+--+--+-++-++-++++---
++--+-++--++++-+-++++-+-+++---+-+-+++-+-++-++-++--
-+++++----++-++-------++-+-+++-++---+++-+-+-----+-
--+-+--+++--+-+---+-++-----+++++----++-+-++-+---+-
-+++++-+-++-+--+---++-+-++--+-++-----++--+----+-+-
--+++++-+---++--+-+-+++-+-+--+--+-++-+---+----+++-
+++--++--++-+-+++-+--+--++++-+-----+++++-+--++-+++
+----+++-++---+-+---+--++++-+-+-+++++--++-+-+-+---
+-+--++------++---+---+--+++--++-----++++-+-+-+-+-
-+---++---+---+-+--++---+-----+++---+-+-+-+++-----
-+------+-+--+--+-++++++++---++-----++++-++++++--+
+---+-+++-------+-+--+++++++-++++++---+-+-+-+-+++-
+-+-+++-+-+++--+++--+-+-+++-+--+++---+--++-++++-++
+--+--+-++-----+-+--++---+++++++++++++++--++-+--++
++--++++-----+-----+++--------+--++-++++++-++-+++-
--+-+---+++-+-+++++---+-+-++-+-++-+----+-++++++++-
+-------------+--++++--++++---+-++-+-+++-+++--+--+
--+-+----+++++++--+-++++-++--+-+++--++--+-+-+-++--
+-++++---++-+-+---++--++-++++--++-------++++-----+
--++++-+++-+-+-+-+---+-+++-+---++---++-+-+-----+-+
++---+-+--+-++++-+----+-+-++++-+-+---+--+++---+++-
+-----++-+-+---+-++-+-+-----++--++---+--++----+-+-
----+++++--+++++--+--++-++-++++-+-+-++--++++---+-+
------++--+--+-++-+--+-+--+---+--+--+--+++-+++-++-
+++-+-++--+--+++++--+------+-+++-+--+---+++-+-+++-

*** Life<FredkinCell> 7x7 ***

Generation = 0, Population = 28.
-------
-000000
-000000
-000000
-000000
-0000--
-------

Generation = 1, Population = 28.
-000000
0-1111-
01----1
01----1
01---1-
0-11--0
-0000--

*** Life<FredkinCell> 18x16 ***

Generation = 0, Population = 78.
----------------
-000000---------
-000000---------
-0000-----------
-----00---------
-000000000------
-0000000--------
-----00000------
-000000000------
-000000000------
-00000000000----
-00000000-------
---------00-----
----------------
----------------
----------------
----------------
----------------

Generation = 12, Population = 135.
--34-350442--3--
2--5-84---2--3--
4---43-------4--
--4834----224--0
-036---3--433-21
32-622-526---2--
86-7583221---01-
--114412502--4--
3--453---1-----1
-7-0304--4252-2-
-52---6314-42---
-3-------246-03-
513--3-14---0---
-6233--647----3-
-3---2-32---2---
-0142----4----11
--3--5---3-00--0
-01212-------0--

*** Life<FredkinCell> 15x15 ***

Generation = 0, Population = 87.
---------------
-000000--------
-000000--------
-000-----------
----000--------
-000000000-----
-00------0-----
-000000000-----
-000000000-----
-000---000-----
-00000000000---
-00000000000---
-00000000000---
---------------
---------------

Generation = 1, Population = 94.
-000000--------
0-1111-0-------
01--11-0-------
0-1-0----------
---0-1--00-----
0-1-111---0----
0110----0-0----
01-11111110----
01--111--10----
01-10-01-1-0---
01--111---1-0--
01---------10--
0-111111111-0--
-00000000000---
---------------

Generation = 2, Population = 119.
-111111--------
1--2-2010------
120-2--10------
10-010-000-----
--0--2-011-----
102-2220--10---
122-0---10-0---
120-222-2210---
12002220-2-----
12-21-12-2-----
120---------10-
1--0---0000210-
1--2222222--10-
-11111111111---
-00000000000---
