*** Life<FredkinCell> 20x20 ***

Generation = 0, Population = 114.
--------0--000-0----
0-000-0---------0---
0-----0--00---------
-0-0-0---0-0---00--0
0-----0-00---0----0-
00-00-00--000-00-0--
-0-------0---00--00-
------------0--0---0
-0-0--000--0---000-0
00----0----00----0--
0----0---0----------
-0-0-0-00-0------00-
---0--0-----0-------
0---0--------0--00--
--00------0----00---
--00-----0---00--0--
000-----0---------0-
-0---0--0------0----
--00--0--0---------0
0--------0----0-0---

Generation = 3, Population = 202.
-0-0--0010-11------0
1----030--0----110-1
-020-0--0--00---0--0
---00-0-0-2----332-1
-2--20--30-0011-2--0
1001--1----1---3----
-300-000010-2-02-130
-00------000--------
1----21--0-1--01-1-1
11----11---0-210-32-
-2120102-00-20----01
---1110--2-20-0-0112
-22---00210--01120--
-2200-2-11-1-100010-
0----1-0-000-11-020-
-----0-11--02-11-1-1
11-1100-----0002-002
--2---1-1---------0-
0---010--1-1---0-121
02-001---3--100-0-1-

Generation = 6, Population = 206.
-11-------1-2-----03
2-30----3-11112-4-12
-321-12--2-1-0-11--1
00--10-100--22--4512
-3------312-12-0-0--
--11----01--2006--01
0-00--10---2--32---1
1-1110-1-3-110-20122
-1-1--1-23122-1---0-
-2-0--412-1322-01--0
----1--311-1312--21-
1----434-2---11--4-2
13---1-1-2-2-----12-
13--3350-2-2----120-
0-00-203---122-112-0
-210-1--210----10-02
44021300-0-1-01-10-3
---21-22---2-201--12
11--0----4-------4--
--2-3--0-62---3--04-

Generation = 9, Population = 209.
22102--134-534--13-4
-06010-2-11-423-7213
---112-1--1--122-2--
--002---1-32-3--482-
-60223-2-2-04-3-5-03
4----2--1-2--3------
-5-30-4-1-0544------
20222--4----2--20---
443-----3-2-5-2304--
1-2--042--132-41-3--
-22413----3142-10-2-
20112-----2-0-1324--
-32--1-143-5--3-2-30
2--1-4-31--30-----02
11-0-3-4-0122541-2-3
-2--213-543-4-221--3
-5--4---3-0-00--1324
--3--2----0-12---3-2
-4---5-----1--1-372-
---36--136-022-1-15-

Generation = 12, Population = 192.
5343-102-5-8-5--2--7
3----072--1-433-----
-5-4--4--41-12--3233
-1013-0------606--2-
-73-5-2-6-4-54-262-6
4--2---1------270-31
3-430----315-5--1--2
--55--0-2-2----30142
-5423-203432------23
-----1--3----244--2-
3-354----1---32--224
3-2---352234--2--5-2
-332-4--5----342-2--
-5----6625--031-----
--0----7--25---13-03
---3--436-614----3-4
-6---5----1411---62-
---2--4--0--2--23-3-
--2--6-3-8--0--3--23
15-6930--95123-22260

Generation = 15, Population = 205.
--4-221-45-9-8-3----
627-1-----4644-38-3-
38---24-----134462--
--3-3-03314-27---+54
18-4---2-2-0--3-7-07
-------1--43--38-46-
-84-3--1--2-65542-43
--6----6---33126-1-5
-8--4-21-4-3724-1-5-
4421-1--4--45-755-30
-3----1-34-4--530255
423--54-3547--244--3
-4--0----7--235-43--
566---9-5-141--4-2--
2--2--2--036--5-6---
0-----76-57---2---35
6--2--1---15-43-1---
1--224-2---5-22-45--
-5-3170-1--212-3--5-
26-794-23+-256-2-39-

Generation = 18, Population = 222.
5-5-32-2-66+8926-3-7
-381-0--3-5----6--3-
39561-5---234-5-7-54
2-32-30-3-5-2806-+--
2+-5---2-3-3-5-3-417
-13----1---43-6-2794
--5-34---65-765-3453
22993127-5---1-612--
6965--313-4673--26-3
----2--37-5----68-61
4-3----4-5-4-3840--6
5---2--5364-2-3---4-
45-4-4-2-8-733-554-1
-9-3----671724344-24
2113----004-37837--3
14-43-+7---3-33-2-4-
----552--326--4---26
4-----4-32--232--844
5---28-4-9-3----6-63
5-27+42----2--45---2

*** Life<FredkinCell> 30x30 ***

Generation = 0, Population = 180.
0-000----0-----0-----------0--
----0--------0---00-----------
---------0-------0--000---0---
--0--------------------0--0--0
--0------00--------0---00---0-
0-------0-0---0---0-----0----0
-----------000---0---0-----0--
-00------0----0---000---0-00-0
--0---------0-----------0-----
0--0----0---0---------------00
0--0-0----0----0--0---00------
---------0-0--000------0--0--0
0---000-----------------------
-------0---0----0----0----0---
--------00-------0------------
---0----0-0--00-0-----0---0---
-0-0------0000-0-----0----0---
-0---0---0--0-----0------0----
----0------0----0------0-0--0-
----0--0-----0------0-0-------
-0----0----------------0----00
-00--000----0---------0-----0-
-----0-------------0---0------
00-0--------------0------00--0
0----------0-0----------0--00-
00-----0-----0---------00-----
-----0--0-------0------0------
---00-0-0-------0---00--------
-000-----------------0----0---
----------------0--0--000----0

Generation = 4, Population = 393.
----03221-12-1---0--002-1-3-02
----2----00----------01-0----2
0-1231---1-011-01-2---2-001---
001---0--1----2---0-1-0-0323-1
---101---2--121----01--1------
0-311-0-0-4--1---0--0-2--0-0-2
0--0-0-11-1--2--010-0----21--0
120---1--133-1----1-4---20-001
--2-20--000-----1--01--31-----
2-0-------131-0---1--1---12022
-10-2-101---10----1--12---1---
-013-1-110-00--11--1----33-3-0
1-014---03-0-0-3-----1--1-1---
11---1-123-20--1-00-1-3-----22
2--1------000--00-0--30--0--0-
------2---20-1-100-----0-----1
1---3-0-00-1--122--0--00-0--10
-20--01-30-3200-----------2-01
0----1-0-3--2--1-1--10-10--123
-0-0-----101-00--0----0-210--1
0-12-0------1--0---0-0---121--
--13--111-2111--1------1-00-1-
-2--01--01-0---0---0---2-1-00-
-412112-1----31-2-----2--1-1-0
---11-01-0-----0-1--11--2-1-2-
---00-11-0-11---10--0--11--1-2
-3--01---0----------1--1---0--
-0212--02-2------1111-11--1---
--10-010---0-1---0---20-10100-
11-10-002---01-10-1000--231-0-

Generation = 8, Population = 426.
-0-22-433-1-11-----1-2-223-1--
--10-0---0----2---2--0--123-0-
2323-5------3312-2-3--3-411--0
--1-0----323--4-1-4--1-4--6--2
231--53--403---00-0--00-2-3210
1-5-1--02-51-3--12----20----2-
2-0--0--23---4-1-3--01-----2-2
-3-0213-3135121--331-1-0-241--
003-4----2-522--1---33----320-
21-2-43-02-311--10---2-243----
-2222-22101--422122-134--1--11
-0142-3-1----1-3-33230-43-----
3-------470-121----1----3----1
5311-115--5-2041---0--7---3-2-
61---3---1-022--0--1-5-0-0-1--
-----04-23-4----1--3133--142--
1---5--0-0--3------110-0--1311
-6-511-2321-6-------0--30-2143
2-1-------3-4---03403-1----3-5
--12231-11-2--------1--1--0-02
-2161-2--1----00----2--10-2--3
31---3-1-162-3-3---0-105--0--0
-4------13-4-1-0-0---------1-1
-----32--3-1-73--001-0--1-23-0
--12-04-1-1106-02---12--41--3-
-3-042------3-----4-2----1--14
15--45-----0-3-22-------22--11
11654---4--2-31-4---1-31----10
23-4143--00-------0----31-11--
2-13-1024--24-022-2--0112712--

Generation = 12, Population = 446.
303-34-3-----3-1-10-2---------
-1-42-1-1--3----1---5-23--5--5
-3-3----33-454--5-----4-4-330-
-1-30-33-3-3--60----62-4-466--
--352-4-0---33-2422-6----1-251
22-1--02-3--1--11--141-25--1--
-02-1--43313------0-2--3--3432
25044---41363431-53-4---3663-2
----53-132-7--2-5-2354-6-154-3
-3-3263---453-3--0-----4-46034
---22--2-2-23--4-2----81-2533-
--26-44423-0---7-37--0--35-31-
-1---53147003-13-1330----1-102
---3-11-4-95-182---0407234-3-5
8122--2--5----111---3-------4-
--2-2--4--48---62--43-4--1--05
-4---52-1-214----1--1-22--3-51
3-2-3--3-----1-----1002--3--6-
--3-43-------3--25505-320-25--
-05-432--13-0-24-2341---2---26
23-+13---11----0--006-22--4525
--263-3-237--74-------0-04-0--
--0--3-4-51--3----0-22063---11
1-1---34-4---9--2-0-122---3522
-2--41--3--3------1123---3-2--
0520-4231-3-41--4-42-22-4---3-
291-86-0-3--17-----0-4--32----
32-9-513--5-25------1-51--5-30
-31---53--211--32-12-3---63--1
-553-31--3-353-4-33--23---221-

Generation = 16, Population = 395.
-1-6-5--74-5-3032-2245---34--2
-24--6-2-2472---2-3-73---3-1-7
73--67----35----7-8---8-4--52-
----0----7551-8-6---7324--+--3
36--4-442-2----45---710---6-53
-4-352-2-----5321---5-2-7----6
---3-------42----5-5----2---43
----53--62564-55---3-----865--
1-4-----7--------12-66--3-----
-42---431-665--3--43---65---44
----41343-24--2-------9-0---52
--4-35653-4--3-72-7-6--6-7153-
-324----4-2---2-23---4--------
6--501-9--+--3--12-0--923--737
+142234--7-----3--------11----
-0--3-----6+----2-1----3--7-4-
3-05-7---032-3-3-111-3-6----6-
---7-22-3-------3-232----35-7-
3--2-3-43-7-7----6-0--32--498-
1-5-5-3---4--6------2-23--3---
6-3----3453574-213-2-143---6--
-227--42-48--98-153--3-5161-3-
---2-5-5-7-553---4-2-4-6-3-5--
--3--344--324--330-43-4-4--732
--33--5-5--3--1--5--4--35--49-
16-28--7----5-2-43---463----3-
---0+820-501---44-4---5-34----
44--8-2-8-7-6-508-441-7--27-52
47-62-7--------3-2-4-5-4--4---
4-----1---03--36----3----7--3-

Generation = 20, Population = 438.
----39+3+-2--5032--3---6--8---
5-5-3--37-5---8--04-7--6-5----
933-8-01-----61-93--4391-3--44
2---0-6518-6-3---7--7-3-15-8--
--4---5-4748-5-5--6-+-1-33-394
4--4--46-86-3--4-3--74-4--8---
51----15-----64---2-41-644---3
471-7---6-7----72--5-----+-924
---27--2----46-46----8--456--4
--4437-53---7-5431-5--3-66-14-
---4-3-44-----2--3-22---2-6662
--6836---66-1-59-57483---9----
64-58--568-1--25-455-4-444--1-
+---233-7-+--3+-123051-3------
+--3---2270-434--6--48-22-355-
-1----6-----3---4-255-8-11----
--2569-5-1--7425---3-3--62--6-
5----634--1----24-244-35-4547-
5--35---46----4-469---53--6-97
-09--635326-3-661---3--7-----8
--5+--83--5--8-33--2----436--5
--49646-46-3--+--7--13171-31-2
57-3372--9--9--4-42----83-5-3-
1--4---4-55----73----5-0--9+4-
47-4---45625---2--235715--1--0
----+9---35-5--5--45---3-1-64-
592---408-13---6-36---52-52555
-48---25---68-6083--52822-9-9-
--1--5-5--5--91--2-53-54296-5-
---53---8-25--4-45--4--5-73-4-

Generation = 24, Population = 459.
--5+--+5-649----6---575-6-----
----4-5--398-3903--8-33-47+3-+
+--6--2--367+7-6--9--3--63--8-
-44714-9-8-76----8847--936++-5
4-677-7547-8-659837-+-5-4-+3-6
6---9-672---5-45335896-8-5--4-
7-5---1-65-5-85---3-5--6-64695
48-5--82--8-76----8-7-1--+--2-
-19-9-1--42-474-74--8--+----3-
-6---75-5-6-9-7---5-----8-----
----5-546--4-7-654--33+---8-7-
248-769966-43----6-5+--9-+-63-
66-5-9--8+2-7---45692-0644242-
-6483-----+-53+532-1-5+--559--
+-543-9-3-114-4-6----+--23---6
--577177--7-3-3945-7--+-338-8-
4-476+-721-2--27-5-56---644-8-
793-6-3----7+7-4---8503-5---+6
765-7-3------4-5--+5----158++-
-1+-7-595-6-4+68---5-059--404-
-5-+24-459-7-8-4-33283--4-67--
655--6-45------8-9-4-4-93---44
6815--3--------8----36--45----
--746-7859535+5-----46-2-3++--
-+4--3------3722--4-5-2-7-3-+0
496-------67-4-6---------3---7
----+-41-73--+---4-------7----
-5++962--2-6958-----6-9---9---
--3--7--667-----7-2976553+826-
678--7-486-7-4-7-6---3--683-81

Generation = 28, Population = 468.
8--+4+-6+--+-8-5--5-785-+--3-3
--6--77---+---9--37885-86----+
+--79933-5-7--28--+95--1--568-
68-----+-87984+---84--5-4-----
-8--878768-+47-++--4--6--4+3-+
77-5+5--49-67-6-47-8+8-+--9-6-
---4633-6-4--855---+71485-4-9-
58--98-4-4+8-----6---53-8-----
----+434-84+-8-9-83-++-+-5-+-7
68-67+-8-78-+6--5------8--73--
2-5----58---4--7---5--+573-+--
35+998++-68444+9569-+---+-164-
7859-+---+4272--6-6----844-6--
+68-3--+75--6---3-5--7---99-59
+27----83--3--46---66-2-35--86
3478-3-9--9+5---57-958-773---7
54696+5723-3-6-9--2674---5--92
8+-9--5-78-7+72-7-5+7-5-66--+8
-----63--7--7---96-6-1--3----7
-2+77---7--46+6--5-731-+-76--+
-5-----5-+-7-+1-634-846-6---5-
7-7+7+---7+--+-8-+-6--1+-9--8-
--2-6+5--+-8---95-7-3+---557-5
--9-7--85-7-7+7---5-6-8-63--4-
5+6593755----7638--69-38--57+-
6+6-++-+-----46+-6---8-4--18-9
-+---+--+854--57-5--58--6+---+
79+++7----+-97+-----+-+3--+2+5
8---48--8-9-3-5--23----5--9--6
--+-69-6-73---7----4----7+44--

*** Life<FredkinCell> 25x25 ***

Generation = 0, Population = 73.
-0---------0-------------
-----00--0--0--------0---
--0----------------000---
0--0--0-0---0------------
0------0-------0---0-----
--0---------0------------
------------0---------0--
-0---------------0--00---
---0----0----------------
--------0------00--0---0-
-----0----0--------------
-----------------0--0----
-----0-------------0-----
-------0-------0---------
0------------------------
-------0---0-------------
------0---------0--------
-0------0---0---0--0-----
-0-----------------0-----
--0--------0---0---------
------00-----------------
---------0-0-------------
--00-0-------0-----------
-------------------00--0-
-0--0--0----------------0

Generation = 5, Population = 305.
13210---0-0--0--00-01-0--
0-----3-------0---0--2-10
240--01---03--01-32-002-2
----2--1----20-0--0-14--0
--1-----2---0-01-003--020
-----20-1----011----13-1-
----0--130-0-0--1-11210-1
-12-012-4000-20-202---102
2-0----01-----0------0--0
----1---10122121---0-00--
1---00-10-0010-000---0-00
--00--0---0-0----210-01--
0--101-11100000----00-02-
0-02-10-0000-001--010-010
0---2310-0-00--0-003---0-
--11---31---2---1-0020---
--1----2---0-0--100220-0-
-22-1-2--10--0---1--21010
-3-3-00100-00--1------0-0
30--101---01-002---2-001-
----10---122-1-020-00----
---00---210-24-3--011----
1--2-1--0--200-10--2----1
-0100--00-0300-0----20-2-
2--0-04-1102--0-0--01---0

Generation = 10, Population = 303.
2--11-2103---112-3--3--00
3----------0-233-3----06-
3-32-3---13-1-0------0303
--1-41-13---2210-51----1-
43-1--2-7-0-3104-31--0---
2--1---0-4304---1-03-3-2-
-22--21231-320-13---42---
12-2-2-0----4500---1---1-
--20-2--2--0-10---1-11---
---24-34-0-554-2-0-0-3210
---1---------1--0-1-4-1--
2------232021----2--20-1-
3---023--3-12--2--1-112--
-05-0412111---2-------03-
11--36--0----2-----51--20
03240--5----42-2-1-050--1
1-1-00-33-01-3--1-----021
23-04-41-334---3--2----22
-4-3001-0--12--4---2-21-1
6-11212331--3--4-2-42---1
22632-1--2-32--13------00
-33-0--5--1-3--6-0---200-
---212-3-0-5--13--03---1-
23-020-3-304-012---33---2
--232--221--3-121-212----

Generation = 15, Population = 300.
5-6--0720----323-42-45-03
4---734-51--3--43-6-24--4
4--725----6864-2-553-28-6
6-3-----3-3---1-67-31-1-0
6---4222+-2-6-1--625-16--
413-262---------6--465--1
-----3---343--4-5-25--1--
323---6--3-3----4-3---414
5-4314-131133--22220---13
0---74---3---6421-1-3-4--
-2-3-----1--23---2-------
43---0--4-153------4502--
-50----2261-2-0---1-3-2--
--85--2264-201---2---116-
---05---3-0--7--1--5--3-0
-6--24-853-2-7-23-2-7-23-
1--1-3--8012-4-----6---5-
5-2-754-18-7-4343-22--334
-63-1-4-2131-2-5-3-53--4-
-12322---1----2--517---4-
--6-543114------6-24--0-1
--32-2--2-3---2--2-3370--
-22-1--411-714----2-----4
5--3-0133-0--1----4-42-5-
-5-6-5---2-2-2-5-13-4----

Generation = 20, Population = 318.
-5---183-6------473-58---
6--1--42-2-35--64-84250--
-8-+---334797-2---74---0-
--3--3-----5-462996---1-3
7-525-3--2---43637272-86-
-1-438-529----5-----781--
3240----534--24-60-6-3--2
---32---631-47--5443-6-35
724--442-1-4-51---2-6---4
3-7975-8-46---74--333352-
--4-54-42---2-3213-1--33-
64465------5613--43----35
7---05453--621-33545---32
--87-65---6-51-----4-31--
4----672-4-437-3262------
36--3-2+---58-05-1307----
--3--3-7+0--153---3-6---5
6--0---1------3---4----46
1-4--2----314556--2847442
-4344--5--245------+-33--
3--+67-13-4-44-4-5-92-324
--6--539-----7-8-456-8151
--3--61--44--52-4-47-3054
----612---0---3--4---4-6-
---8-77342---526543--4--1

Generation = 25, Population = 289.
----4----+-25----8-------
7523+-557-9-5+--59+757-+5
8-6--7-4-5-+964---843-+--
8--29---6--74--5---4--3-3
-68--7---43-8--8-+58-----
-----+4-5-66-----23-8+-5-
6--2------4---5-8-38764-3
5-4532--641-7-23------7-7
-2--75525-34671-35528----
5-9--8---------5------+2-
546--74-74--5--32----23-5
---77-476---6---4-4--1-5-
-5-7089-5837------5--5-32
--+84-8-86---4-622-6-648-
-4-6--7234-5--34------63-
3---462-54-----5-3-0-----
5---6-3+-15----1544974--8
76--------79576-6--------
----32---13---882--+-+--3
+74---48-2--82372-5-4-5-5
---+----6-------86---1--4
-8+----+--5-4-3+5469-+-6-
-644--6-477-3----7-74--66
6755-----51-6-3--7--45--4
-8584-+4--1-9-49-6579-4--

Generation = 30, Population = 317.
------+----75647-+479952-
--5--466---38+-+8-+97--+6
-+--5---567--+-5---54---+
9--5-544-76--5-8--9766---
+8---+-7+6---78--+-96--+2
44-+6+---+7-7--5---5-+---
--63-5649---74--84-----66
-4-8--+-66-39-7-6---4-87-
-3678--36--4-81--5-4+4325
------+826-7---+6---63+73
556577567-24-5-5--5-8-475
-57892--7---8-3--6---1-8-
--1-3-+66-4-2-343-66--455
-4--6++-++7-97+7-5---76-5
---87-+2555-4+-9---92-842
--+--7-----7++-5---29255-
66-----++25--7-2--6---35+
-8---+-4---+-8---+4-94---
--7-65------6-+-57-----9-
-----6---757--4-37-+-45--
--++974-67--76--+9----537
-8---9--56----5--7-97-292
6--73+--7-+---3-5+68472-6
-------745----5-5-7-7757-
58-+6++7554-+-4--6-8+--12

Generation = 35, Population = 320.
-----5+3-+--694-5+------3
-5---58--49-+-9++---9+3-6
+----+-----+++65----56-3-
+-5-+--5997++6-+-----77--
--+4----+7-597-+--8-75--4
-4-+7+8+6-8-95+------+462
8-94--95-4--8-6---59++-6-
9-685-+8---3-+---88------
---+-5-39-3---174-----335
8-------38--77++937674--6
6-98+-889834+6--3-6-+469-
-78+-26+--68+--75-8+92-9-
+9-+-8-67-6-2---6--+9-46-
-5----+3-+87--++--286---5
7-698----7575+5-4---3495-
--+-----5--8++0-6-4--27-3
-8-47--++--6---46--+-737-
8--3--673++-------58+-56-
5--7-+-8-3-46----+3+8-9--
-8--------79+3-+6+-+-----
35++-8-4--------++-+--6--
5+-53+-+-88-9+6++8--7+-+-
-77+3+--79++--3+-+---+-79
---++33-5546857--8--9-87-
-98---++-663-97---5--7--7

Generation = 40, Population = 329.
+8-77-+62-----69--69-++46
-574-6+--4-6-+-+-+-------
-+8-----88++---8-7-+69-3+
---7+-5----++9-+++--688-9
+------7+--89---8-8---++7
578+--++7++--7----9-++--3
+-+-76-6-5-9997-+9-+++-79
+768-6-----4++-7-+9------
+4-++684--378--9-7---8-35
93--+9-+---78+-+--8-+4-7-
--9--++--+4-+688-4-2-----
--+-+4-+84-+-6--778++-397
+----9-8-+7+4-76--+++7-6-
4---9--3-++-+--+3-5---8+5
86-99-----67++8-794-56-83
68-97--+-9-9++3776-------
+-55--4++-----6-678+9--9+
---3--9-6-+--9-+9+5-----+
79-+8+------79++-+-++-+-8
++88--7--7---68-----6-5-9
---+9---++-++8---+-+-4-6-
--+78+5-8--5+++-+---9--+4
---+4-7-8+----6---9---4+-
+-+++43+7----68--+99-+-8-
-+++8+-+86-3-+8-778-+87-+

*** Life<FredkinCell> 50x50 ***

Generation = 0, Population = 293.
--------------------0----0-------00----------0-0--
--------0------0--------------------------0---0---
----0---0-0----------0-0---00----0-----0----0-----
--0-----------------0------------------0--00------
0-0----0---------0----0------0--0----------0----0-
-------00-----------------------0---0--------0----
-------------------------------0-------------0--00
-----------0----------0-0-------------------------
00-----0-----------------------0----------0----0--
-0-------0--------0---0------0--------------------
--------0---0------------------0--------------0---
-0-----0-----0--------0-----------------0--0-----0
----------0----------0-----------0--------0-----00
---------0---------0-----------------------0-----0
---0----0-----------0--0----------------0---------
-------------------0--0---------0-----------------
--------0----------------00-0-------00-----0--0---
-----------0-------------------------0--0-0------0
-----------------0-0-----0---------00------0------
0---------------0---0------0-0------------0-0-0-0-
--------------0-------------0-----------0---------
---------0-----0------0-0--00--0----0-------------
0-00----0-----0---0-------0-----------------------
---------------0--00-----0---------0----------00--
---0------------0--0-------0-----0---0-0---------0
----0----------------------------0-0----------00--
----------0------0-----0------------------0-0-----
-0-------------------------0---0------0-----0-0---
----------------------------------0--------------0
-0--0--0--0---0--0000-------------00--------------
--------------------0------0------0-------0-------
---------0-----0---------------0---------------0--
0---------0--0------0-----0-----------------------
0------------------------0----------0-------0--0-0
--------0-0-------0----0---0----------0-0---------
--0-----0------------------------------0----------
--0---0------------------0----0-------------------
----0-----------------------------0---------00----
---0--0--0-------0---0--0----------------------0--
------0-----------------0-0---000-----00----------
-0-------0-0------0-0-------00---00---0---------0-
----------------0---0--000----0---------------0---
---0-----------------------------0-0--0----------0
-----0------0--------------------------------0--00
-----0--------------0-------------------0-----0---
------------0-----------------------0-------------
--0-------------0-0---------0--0---00--------0-0--
--0--0-----------------------0----------0---------
---------------0--------00----0--0-----0-0-0-0-0--
--0---0-----0-0--00-------0----0------------------

Generation = 7, Population = 1207.
002-32---1-0---1---003-1-00--2---23-2----0---0-2-2
-02-12011-----1-1101-1-----0--2-0-0----2300-0---10
32---0---0-2-1-1--0-52---1--11--30-2---2-10--42-0-
6-3--0--0----22110------200-22--22012-4111---1-11-
0-54-10---21-1-3-2---623001-2-4--42-4-1-0-4-612--3
2--2---12--2-1--023-1--0---2-212----102-212-014-2-
-0-012-0---0-11--111---201---0223310-0--0-100244-5
---0-0-40-00--10--02--2---002-10-1000---2--2--120-
-32-01--2-4-2-02----031-1-0-242-0-111--132-0---22-
052100--1210---00-1----1---20--2---21-2031--1-00-3
1-2-301120----2010-00-----22--0-------10--2-----34
-503-0----00-020--2----1--1023---2---01---------0-
31-112-21210-0-12---200-02----1---1040-0-21-1-2323
--0-------0-----0--31--30--0---11-----2--21-2-1--1
22--22---100-0-20-21--024-0------00-2---00-2103---
3421000--00-0-2-2----314--3-1--0012--4113-5611-0--
-0--20110--0-20-02--10----41-4-1-0---1--15002--03-
---0-1010---22---------0-2---2--2001--43---321-325
--42--00----0---121340-----1100---3-3-10---21-21-2
-05-0---002----11----13---00232-011-----1--2-0--1-
11-2-2-21-10-221--5--1-0424--0-01-2--21--01-0---24
4-0-4-12-000-0---3-3---0-----2212--3-010-0-2---3-3
11-4213-0----0-1---30001-11---11030-1-2--0211-0-0-
1311---1--2-22---2----02-2-----30-22-32---020--3--
-1---1-4--200-1-122-1-13-22----21--2030-------10--
01--0--2304-----12364---2-0-2222-4-32--1--012--41-
---5--2----1--10-13--31--0140---1---0113---1--3030
20---1----2-011-01-3-20--301--21--40--0------011-0
-2-301--2--12--1--024---0-44---0-24-1-----01-2--21
-313---1-0-1--1---310-13--1---11-4-3-03-0----0--0-
2---2---122--2---120--112-21-122-0---21--0----221-
4----20---3---3-1--1---2---0011--2--0--3------10-4
2----0--1-04---3-00-1--2512--010-00---3010----200-
2-120-2111-------3--4-2---12-100--210----12--2-1-1
2-1--2---1-0---2---0---2-1-01---0--0-01--02--22---
---0---0-0--2-00---2---1----0--01--101-10-01----0-
-2----2--3--2-0---301-2231-21020-20----000-2----2-
--001---51-00-----00---0-1-20---1---00---2333-420-
-2---43-2-21-0----204--2114---3-----0-40--021-2021
-00--12-3-0010----22-25---51------2--30-1-22----23
---000--00-1---2131-32-2---114--3330-37-----------
0----1-0--101-2--1--360---2-4221201040------241001
1012-12-2-000-024110-2--0-0113----514------2--43--
------112-2------10132---3--2-111--0--2-0-2---1--1
1-200-0-0-0--0-2-0-02-0---2-133002-1---112-250033-
-0--0--00-00-0-1-31--2-32---0-12---03-1-6-2--2-1--
--3-2--0---0-0-1--1-1-003200-----3--0--0-5----20--
--31-4-100-2-2-1-3--0-0-0-3---0-1-104---0--21-101-
---0--1--2001--0---11412-3---030-00-2-02--211--0-2
-2-123-1-2--1-22---23---10----2---1-220-3-10--00--

Generation = 14, Population = 1223.
-334421-4-4-1---4-3-46-44-2-2241-73-2---113----2--
13--13---1--1--0-2---2243--2-1-1----1--4420----3--
4-----41412------4-47--6---2-4-----5----1---1431--
8--------02--333-1-13060---3--2--23---43-35-11---2
04-5222-14--1--+23----3--2-6--6--742--17-3-1--3--5
5-2--1--33-----1-3---150--3294-----1-1---2-3-2-37-
----43--2041---2-------412-2----6---2-2236-3-7---6
43333--5-1-2--212-132-30--20-4----10100---6-1333--
6--325454-55--1-3-0--3-4-2-----22-4--40255-3-22---
263-03-1-7--2-2--323-4541333---24115---2542----2-4
32---2--61-1-----22-53--0-24-41---1120---5-432---7
06-54---0-2-4---2-452--3-4--4821-424321302-3---2--
5-12124-135--24-----3234--233-1--0-17-201---4--435
---01-2-14---11-2443-4-3---11-2-5---------2---13--
3--3-3---5-1---63--2-31-7---2--0-0213--30-05---4-6
552-1---3-0----24-4-2-----35--421-3-1532--+7-37333
-5-----20-2--2----3-----234-67-20-1-2-1-----44-333
---2------1-4--12-16023034-25--354---1-6--0+------
--------231--6-----5---03333-02-24-43--1--2-3--137
--7214--4---02----2153---3-2--2-2--2--4-1-262--36-
---31-1--1--13-1-1-23312-6-6--21-45-3-33-14-1-----
-12--2-33-1-04--53--4--16-3-23-2--4-2--1007414---5
-12-61---1--0-5--3761--54-5-4-22--5-424--1----33-1
3-3430---2--52-6--5-----25--12--23-3-3-31-2--26--3
------------11--34-2--430--2-24---574--424-0-----1
----2--262-42-35---8----4---32--14653733-0--55--54
-04803-3--1-2-4--442341----71-22422--2-4-0----3-50
51-41--0--30-321-3-7-2-2---44--2---3---3-1---1----
0-13--4--35--4246-23-0---195-38--2---43---2-4--022
3--4456--3-8--2-53-1---42-2--5--154361------1-6--3
---622------12-4-44-536-55-35333-33033--01--30-4--
4434-52-2----5--22--323-13-----45-1-301--215253135
420545-153-----341-261-37--1-3-0-2120-8-3--03-223-
34-22--3431----266--7-24-3-2-33-2-5-3-4-024-5-3541
---4-3--41-15--7151-5336-35----25---53-0-14---7-10
-----1-3--4---20-2230--2-22--34-21331323----0-1-4-
3-------1--------4--6--35-4-3-40---1-1-1-1----5--3
-02-33----4--32---325--1--3----4202-2--1--5-34-441
0-43-73---42---103737--5-36-61-2-0-351--4-5-43----
1---4-4-61-3--24--524--2--821-----5-2---3443-34-2-
--2--5-6-4-24--3-6--------2-36-1-73-3----3-333---3
541--3-02223-0--4-4---1-55--9752-2-17----23-46--24
------2-----0-0----1--110--3--02-1----1--1---17--4
--2----14-42-11-7--35-3-5-30-4---1---2--3--14-15--
--5322-232----253---4--21----4--2-11--341529621-74
----0-41------31061---14-35-13--3---------2-271---
6-70--3--31--1--22424-12-32-030-052-1--1-7--2-5--8
-23--4---2-33-623--11301-070-03-34-3-431--3-2-----
024-2-5-0---2-----2-143--532---1--5-5--53-3-12-214
0---2-61-521-25--2-236-0303-1-64-1--3--2-3---1-3--

Generation = 21, Population = 1243.
2--7--2-47---4328-5098-46-56-6-4-+--6448-634-0----
2-4-1-21-83923-------44-621--1---5-62-95--3924--3-
6622-1715------6-4-7+6565---25---3---6-8--3-2-3--2
-7---445-32245-4-3--+1--2--3-252--4--465748--2----
-9+--44326-5-5-+2663--595---7---4+646-182--4734556
7-243--7--3--44-8--1648561-396-2414--33---54--879-
---4-3---14--37701--44---------9--3--4--3-343-6---
554-------4-104-45245-51-331--33--5-2---4--4-----4
--4----674--342-4---1---338-3----4-2-4-596-315--66
49--16---+8---5-36-5----2--3-342741822--8---224428
--4--34692------------3--0---62-5---525-3677-----+
5----4-23-6-434-28555-262---5-231----3-744-604----
-3--43--64----------55-----8--1---5-9-------5-----
053---3--7851-245-5--7--5412--54-23-2-5--693-7-5-5
-4--535-6---3---46---4-6-51-4--5-4--44-63256-7894+
--342-358--5-443645-49---------213--2-7-73-75-9365
582-325---34--3-063---1-2--8-+-413-2--6-27-3-7--+-
3-4-3223--42-4---03--453--1574-457474----50-4--7-7
--962-1-44223+1-4---6----536-135--475--3-3-68-5--+
3--35-2--3-406-2--53--534---53-4---5-----14-4-2494
4-53-22-3252-4-2-4---4---8-8--42---0-4----78--33-6
-1-094-8----3--27-8551---2555-5-9--3-5--20-62735--
-2---64--5-30-5-56---14656---3-7-5-45-7-4-52--372-
-4-560--24-17----5--6--6---2--18-53----4432--3-464
32346-----8231426--5-96--65-37-7-5----2--7---5---2
-47---------523-47--6--4-61-77-448-6--6-5-15----6-
--5+1-4-4443-1---7----27-05-----9-4----69---------
-2--1-2-2-5---4-3-2----2---5----62--53-------4--62
0-48--6-93----37--776-6-0-+53--3-57-3743--5-5---2-
---7---57---374--6--166---54-6--3----2---556---1-6
--3+----45-243-74----466-8+-6-53-5--3-354---40-93-
46--3762-1-3--6-63-6---23-----4872-6-33---282-4-5-
5-1--5-2-409-596---5------342--3-7--36+543---3--7-
-6--24-3-444--9-6-32843-4456---17-78---3--4-7--89-
--5---3----5-62---37-5674-------743-+483-1-2-392--
545-435-2---527----6224354-23-6-3-3545---712132575
---5--314-44----3---61-5+548--722965------3311-244
23--63-2-3-20-4--3-5-3---13-1-4-2-407---3---4-4-41
--46----6-6-04-2--86+-6-----6-573-6-63-6-49668-534
6283---2-243-----366-3---1+-43---66--------4-+-127
-5--1--72--56--4-7-4--5--7----646+6-5-+-6-6-8---36
-5------3-5---8-8382774------+9--25---3----0693446
---------4-703-4-32333------8-14-3-355263-52-2+30-
36-1326-6283323-95--534---5--7-6--1-3-3-61-34---3-
435---6---11---96-7----4-------------24--54--457--
4-425-4---315--2-82143---4---4-6-24---559-3---3-6-
-17-----34--5-6---6-754-5--423------34---967-2-6--
5-41---113-6-6----83280---7---5-543-85----8-44225-
14--47-13-2---634-243-6-37-3-6---3-6-6----51--3-38
-552--7----444--6-8--85--3--339--48-5--7-----3-415

Generation = 28, Population = 1218.
--6986-6--52-464+----9-765-78--93--6-7--2+675-45--
-----8---94+--5-48774978-3---4---8-+--++6-7---45-5
8--9-3--------3-58-9--+7+4+--8--97-88---------4-8-
-9655--924--8-3586--+2-45-7-6-53-4-474--95-789+7--
--+-----2-4-5---5983--6+---7-------7863-65--85-67+
9---8-6----55-53-8-386--8--6-9-3---3-4----8--4---2
--2--7--6-66--8-5-4676-9---6456--+3---586-74-87-56
--567-3-2-+3-----+2--36----4--7--3-52-23--96-987--
-6-8-+79-----86-5527--66558----427-5---79+3------7
-----7-4-++---+-4------859-444--+-2+7--5--9-2-65--
-7-4654+--8--13---3--7---3----36-4---5---7-9-4-9--
-9-9---7626--6643---6-2-----6+---6-84--+-----6-5--
852--4-6-6---5--5-6-7549--6++--31-91+-4-45-5-86--6
7--555--6-9-42--7+6--96----522-------6---8---+9-5-
8-----77--6---7-7-9+0-38-83--34--5---+--4-9-9-+95-
975--1-894--565---7--929--5-7275-5--67+696-985+7-7
7-5-4--7-84+4---07----8-387-8--9167-+6982--6+-34--
899--92--465483--34+2-+---4889-6--87---+662--44+88
-3+--9-----56+52---58-43674-8----74-532---7+-5--8+
-3---745+3--7--7----+---6---935-38-76---5---7257+9
758-4---65--77-------9------7-7----148---27+5-8-6-
--31--5968---81-7--6--2--56--6--+4--4--2--9--+-9-9
---88---5-03-36-57+7-------3659-0-+----4--72-6-+2-
774-+23---+--4--+9-3-68+36--7--95-6-6-99-6451-8---
536-6-36--9444-4+7----7-46----7847--6-----+----7--
-----272887-7-6----9--57-8-7-969-++-6-+6--3-8-++86
-----7954466--42-8-6-55+---8---+--54747++2783--2-6
-7-83+27-17--4----5+73-4593-8---6-9774-+6---6--6--
187--4--+-75---+6-7-64------75+-5-+---4---7-681-54
---+9---+--+--5--------------7563+-8+6-3--+-4-9-19
75-+-45247-5----6+7486+-++-76---4--43745-2+-6-5+51
-89-69963--42-9484--7--5+8-24---7-5694-8-5------78
--1--84-5--+79---35--3-5834848-3------+7647--44-92
3-5347-7859655+-9-559-6-5-9-75-2-58-626--5-7-7---4
--+8-6-773-----849787--96--3-6-3--------3379-4+-8-
-46-7-----+----2---+54--5474678-66---56----325-6+-
--5--3-2--67375--582-3-++------42-6-24---27831--5-
-4------+-9-044----6-6-572544--8566-75464-954---7-
---8--95---52-+2-7-7-56----7--576-----57-79-------
8---5-8-----8------844-82-+5-786---63--4-7------4-
-6-1--6-----85--6--4-------2--76-++65++-646-+--6--
97-2--2-56-34--------9-6+8--++-87-7-+-63--7---4--9
-----363----------5--5-2-6--97-6--9578--3-9-73-4--
7-+-------+4--8---4376---7-3--5----463556-3-8--+--
6-----655423475+--+----44-54------3--3--655+--7++-
5----473-23---472+3-6--8-85-6-4-5----168--337--47-
--+5---344-----6---9---47----3262+-54-3--+-+----5-
-26-9-9---7-5--------------0--799--4-76-1-+2---3--
-4-3-+-4-+----85736-4576-7-4--5---59--2-+-55258-59
3----6--58-6---48-+-7+-38-42--+538+-----68-5--2--7

Generation = 35, Population = 1254.
68-+--4-+9625--7+8+3-+---579---+--8--8----++--587-
4+81----5-----557-++--+---63-7---+--4-+-7-++8-7--9
++6+-48---768+-+8-8---+-+5+--+6-++-+994----6----+7
-+--7-----5-9636---5-5+764-8--9---+--6-+-8-8+--9-+
3--744-4785-66----+----+6--++4-27+++-75+6---88678+
+84-85--8--6-5--8----------8-+356---558-6--8-5+-9-
---8--348----8++646+-85-2-3-4--+7+--+-6+-7--5--+-9
8----17-78-3-2-------5---485---75----2-6-2--6---37
+-++----+8-+-+99-85+7--8-7+------77-5--+++44757+8-
++944--79++63-+-9+5-3-8----+--79---++---9-+-2--65+
++85764+-3-8-175353---45----674--6-----3------2+++
-+-+7-3-7--4+----868----4+8--+-----+4-6--8-6+---88
8-7-7-5-89+7--6----8-6---+----2-34+4-3-66--8--9-76
7--65-----+-8-4+++-68----+--5475-34--+5-+++-4-+-88
+-69---8---6-3+9--++-58-++4-9-------8+--6-+9++---+
--57624-+-4+--7---9--+4+---+-6---683-8+-+----5-+--
9----8++-+6+65----57+-+36+8+8--+4+-4+-+-4-3----6+4
8--65+-54-+--+--448-39-5---9-+---9---7-+9-2+857--+
-6------+655--+3-5---44-8--9+-57-7585-3757+-+6---+
--+9-776+--9---+-2---594-6--+---5-+-8---8---+-87++
--+8-42696-3-7-26--64-2++--++-9-7--25-77--++-5-7--
6-4-----+9--4--3-8++7---+--98976+-+46-45---7-+-+-+
77+8++--6-1636--7--+--7-9-+-7-+-3-+-+----69--8-+-2
794+-3-656+5-5--+++66--+-652-----+--9++9-------5-6
--6-+2-916----88---+9+99-8863--9-8-+----7+-9---9-5
7-+--3---+-7+49----+---8--7------+--8----4589-+-8-
-5---+9-76---6---+--4----1-----++8---6++---+4464--
-9+-3-----957-+-6-8--4-65--8-97-7-+---8+-56---8--4
---+45-6--8--56-98--9--3-6-9-7+58-+-5858-3-----275
-86-++9--+-+4+6-8--53+-+---8-9884-98+-8---+9769-3-
--7--49549---3--6-7-+++9+-+7--86----37-77-+59--+62
--++++977-+6---6--38+-56+9---6--8-+9-57-3----+-7+-
-5-7-9--7+2+-+--66--+3--+7-9--8----6---+6-+-+772+5
-7-8---8-6-9----++67-8695-+678+2--9+-------++7-+--
+---499++5--+------++9-+--9458-8+5-8----4-+-77-6+1
9--2-------3+-74676--6-485766994---98--877--585++-
---7-5-24+-9----7995+-+--7-+90----8-555-+-9831+-68
7-6------7--59---4-7+78-----548---7-9------8-+-+8-
--98----+4--5-+-38-8-89758-7-----9++---++++-+-55--
9-+6-4--98+-9----89+66-+53--8+--++---8-88---9++---
3-7-4+---6--+-6--83--9---+7------+---+---7-7----8-
-8-6---8-+---6-----3--8--856++-++-8--1----9--+-6--
-9-5---57--93----8--5-75---8-8-75-+6786+-6+7-6+7--
--+-5464-6-56-+3---6-6-5-+-5----995--4-78-37+97+--
76--94--672-598+--+49-5--766--8-7+-47-77------+--+
64-4+6-4--3-64-+--5-8--8-+-67-6-957---7+-5-6--5--4
+--+--9455--9-784++-----+85-482--+---75-----75-97-
-4--9---6-9--8-7---56--9+-8-829-98----7---+-77-6--
2-+-8++49+-4--+-9--8------+-5+664--+++4++-5-3-+-6+
5----99-+-7-----94-4---39--45---3----5---9-8557---

Generation = 42, Population = 1250.
9++----++-85-8--+8--++++88----+---+-9-+----+-2----
-++47+947+---7-68+++7+++-8836+--5-2----+--+++5+-7-
+-8-+--4++97---+---+--+7-8+58--+--+-----65-7---7-+
++979--+--89-----+--+--984-++5-6--++-----8+9+++-7+
--++678-8++----+--+6+++---5-+--5-++-++---67---8++-
-8-6+--+9777---6-99-+7-+9+6-+--7-7+--7+7--+---+---
--49--34--+77+++8-6++-9--77+5-8-8-59+8--88+---8+7+
-8-7--7----75-8---5-9---7----9-+5---4---6----+---8
+--+-++---++-++--+9+8+-87-+--96---+--+9--+77---++-
+-9-47-7--+----59--8-+-+9-----7-+-5+-77---+-7-8+6+
--+6--5++4-9---6--6-+-7-9-8+----+-7--8--9+++--5+++
++--+8--+-68+--8+9+-+----++--+-------9-+++-7-95---
9--887+8-++-2-7---9---5-2-+++-5-6--4+6--8-7--9--++
-9--99+8-+-8957++-++-+7-9-4-8-+-97--5+8--+-68---++
-97+--++-++--8++----7---+---+4--+866-+8+-----++-+-
-85+--6-+--+68+-9-+28---98--+7---98-8+--+-+--6++99
+--+-++---7-86---+88+4+---+---+--+----++--6-----+4
--+9-+9--9+77---8--+6----+5----++-9-8-7--9-++79--+
-6+-9-4---86-+-4-8--+--5-8--+-7---++5----+++-79--+
6--+7--8+--+++-+-69-+6-5--2---8---++-++8+-5++5++-+
-++-675----6--44--9-5--+------+---+5-+8-8--+7-+8++
++--+---++--7-5---++7--7+-8+--8-+-+5-9--3---2----+
9-+-+++--9--879+-+-+-5-7--+--7-+-+-9--957++4-+-+-5
+--+-4+778--+65-+-++-8+-----+-++-+++-+---+7-----+-
-66----9--+89-+-++8++-+--+-8----7-8+-------+7+7+9-
---246-8+--++6---88+--9-+++--+8---+-9++7-4-8+-+-++
6---7+--8---99-4-+----9----++9-+++-+-7+--3+--56-+-
8---5+-+62+7-8-39---9--67+4++-7-+--++8-+--7--5-++8
-++-----++-78-9++--9+-+34-+--+--+8+--96+----8-3-+7
----+---++8+5+9--++---9+66-----87-----+7-9--+7-64-
98---6++--6-844-------+--+++---95--+8-5------57---
--+--+-995--6-+8-+-8-+--++----+-8-+-+--+---+7+-8+-
9--9-+9--+---+-+98+8----+-+--+---+-9-+++-----894--
-++---+9-6++--+7---+-------7+9---9---3-+25-+++8++6
+3-+----+-7--+9-9-8+-+------9---+-88------++9+-9--
+--7-689+-+---+48+-+-+--9--6----6--+-8-+79-97+8--7
+7+87-5---8--+--8-+---++-9-++-+66-+--768--+--1-49-
-7--++69++-77+6-8-++++---5+76-+98--++++-8-++---+-5
4-++-+98+6986-++-++9--+88-+-9-6----+-96+++-+-+5---
---++9-5--+6+5-96-++-+++-------+++--8-6---+9-+-7-9
-+---++-87----7+7+------+++5+-++-+-+----98--+---9-
-+4-+-----++-8-5+-+------+-8-+++-7+++1-6----9--9--
--7--+-9-------9-9--65975+5-++6888+9+---6-+787----
--+9--75-8+--8-3----+---+-++-+5-++----7---3++-9-8+
+67++6788+587---+4+--8-4-9--+++--+6-96898-7--9++--
9-------7--276---+---57+---7+779+59-6-++--66+-+--9
----++-58--3--89-++++---+--8-+--8-+-997-8+---68+--
-69--6+6-------+---6+---+4+--3----85-+-741+6+-+-94
---69---+----6-7+--96-7--8+---+7-77++-7-+8-6-7----
------+-+9-6--9--7----8-----5++--++--799--6-9797--

Generation = 49, Population = 1215.
-+++++---+--+---+----+-+9-99--+----9-----+-+-47--8
7+-9+--7+--+--7-+++++---+----+---+4--6----+++7+-9-
-+9-+9+-+++7-+---+--+--9++--++-+-++++--+---7-+9+--
+++--+-+7---+-5-++-8--++-7-+--+--+--+-+--+++++++7+
6++-98-----+79-+++--+-+----------+-+++9-8--8-+----
-+8--+----+--5---+-9+-++++----99--+-9++-+---7-+---
566---44+6+-9--+-------+4-9+6-8+--6+----+9---+9--+
+9+--79+-+-+7----+-+9-9---+-----6--8--89---+-+-+69
+-+---+----+---++-++++++8----+9---++--9----9+--+-+
-++----+--------++-+6-++-+-+-6---+-+----+-+8-9-+--
-+-9--+----+-6-87-9-----+-++8-8----4+--3--+----++-
-++--+7-+46+++---++9---77+--------9+-+-++-3++-8+-+
---+--+9---95-9-8-----8-3+--+---+6-6+9-9-+--7+-++-
+------+----+-7+++++--7-9-9-----+-5--+-8--+++-++-+
-+++6-++-+--7-+---+++7+++++++-6-+9+--+-----++-+--+
--+-+5----9+---7+--3-+5-----+----++7+-+--++-+----9
++++--+---+-+666---9-7--+-++-+--7-+++-+-5-9-+--6+-
+-++8---5--9++--8-++89--7+5+----++---98-+--++-+-9-
88--++87-7--8-+679--+8-9-+9++-+8+9++--4--+-++--5-+
-9+--++++6-+---++7-+-8+5-95--6+-8--+-+-9+86++-+-++
9+-+7+-+9-+++----8-8-+7-++-----69--9-+8-+8----+---
+-44--+-+---+-78++++8--++----+--+--8---+-8-+5--+9-
-9--+-+-8-6++-+-++++-7--+++-+9--+---+-+5--+-++--8-
---+--++---8---+----8-+-8+-3-----+++++++8--+----++
--+-+99--++--8---+--++-+++9-7---9++--8-++-----9+-+
-++-969----++--+-+-+--++--+++--++--+++-+-9--++++++
-7++9+----++++5-8-++------8--97+-+----+-+6--787+--
++++7+-+--+--++------6+-+-++--7--8--+-+-+-+------+
-++----8++-++-++----+---7-++8+--+---++7+98++++3-+-
-+--++-++-++---4-++--++-+-++------+-+7-9--+----+4+
+----6-+---8+95-++--++--+-+-7+-+-++--+-+---++-9---
8+++-+---7++--+-++9-----+-9-7-++-5+--58---+---6-+-
---++++--+-------++9-7-6-+-+4--8-+7++-++--+6+++6-+
-+++-+++-6--++-7+++-+-8+7-+8+--3-++-968--+---+--+-
-3-----++-9--++++++-+-+----9--5++------+-+-+9+-++4
++--99-+--+5+--6-+8-9--9-6+----57-++-+9+--5+8+9-+-
-9++--5-5--++-9---+7+4+--++-+3-9--+--+-+-7+--3+-+-
---9-+----+9+-6-----+-++-5+---++9--++--8+3---+8+--
4++---+--++---+-5-+-++--+++--6++-++++---+-++-+6---
-+--+-+-+-+9-78+--+-8+++-+-9+++++--9++----+--+-87-
-+-6++-+--58-98+---+-+-9+-+-++----+--++-+--+-+7+++
-+-+-+5+-----9--+4-5++--+----++-+9-++3---+--+-8-+-
8-+-----+8-+-7-++++6--9---8-++-++---++--9-+-99+-8+
++-9+8++----+--4+--++-+9-+++-+--++7-----+----+----
---++--+----8----7--99----9-+-+--+----8+----++-+-+
-----8-7--8--87-2-8-+-8-+----7++-+++--+++------8--
+-+--++589--+5+--++-+-+6-+-+-+--+--+--97--+++9-++-
-7-6-----3-------+---+-+-9+-+5--++++-+9-91-8+9----
-8+8+++7+-+5----+5-+-8+-----+-----7++-+-----6-+6+-
+--+6+---+-------8-----6--8-8+-8---4-+++++-++-+-5+

Generation = 56, Population = 1219.
----++-++++---+--9+-+-----++++-+-++9++++-+--+-9+--
-++-+-----++-+--+-+-----++--9+--8-5--++++-+-+9+++-
-+--+---+--8-+--+++-+++9++--+--++-+--+6+---8--9+--
-++++-++-9+++----+-9+-++--++---++-+--8++++--+-++8+
7+---+--9--++-------+++---8++--9-++-+--+--+9-----+
+--++++-++--+7--+--+-8+-++--++9-+9++---+--++-8+---
8----+6-++-----++----+-+6--+--+--+6++-7++++-7++-9-
+-+9----++--96+6+-7+-9+8-+-++-+-6-+8--9---++--++6-
-----+-++-++-+-+++-++++--+--+-++----+--++-++-9+--+
+-+-8+-------+--++9---+--+6---+----+-------9+9-+--
-++--8+-----+-+--8+7+-++-+-----+-+9---+--+++--++--
-+++--9+-4-++---------6--+--9+98-+++-+-+---++--+++
----+-++-+-+6-+--8---9+-8---+---+--+-+9---9-+-+---
++-++-++-+++-+-++++---+-+----9---9-79+9+-+-++++---
----75++++-8-+++-8+++-++++-+--7---+---++---++--+-+
+--++6----+--++++++-++-+-+---9-+-+-+--+++-+++8----
++-+-+---++++-----+++9+-+++--++-+-+----+---+----+-
-++---++-++++---+7+--++---6+9-8++---+-9++-5++--+-+
+---+-9---+-+----++--+-++--++-+8++-+-8------+-----
+-++---+---+-+-+--+++++8-+5---++9-++----+96--9-+-+
--++-+9-+8+---8--9---+--++-++3-9+---+++-+++--8----
-+75+-++++6-+-8--++--88+------+---+9+-8+-+++7---+-
--+----+--8+--+---+---8---+-----+-++----9-+-++4--+
++--+--+9+++++-++--+-+++-++4+-++-+----++-+8+---5++
+---++++-++-+8-+-+++----+-+9++-+++--+-++---++-----
+++4----+--+++-+--+---++---++-+++--++-+-+++-+---+-
--+-++--9+++-+-9++-+----+-------+++-99-+--+----++-
-+++--6+--+-++---7-+-9--++------+-+-++-+-7+78-+-+-
-------+--+-+----++++--6--+-9-+-+9-+---++-++-+85--
----+--++-+---+8+--+-+-+--+-+-+++--+-8++-++-+8++8-
-++--9-+--+--+---++-+-+--+---+--+-+-9+-++-++-----+
-----+-++++-+---+--+++++--+---+-+6-++59---+-9-9--+
---++--6+-7+--+++++--7+7+--+6--+---+-+--8-+-+---+-
+++++--+-9+-+++-+++---8-+--+-++-++-+9------+-+++-8
--++++++-+-++-----+-+---++---+-+-7++-9---++-+++++-
+++--+++--+8--+--+-+---+---+8++8----+-+-9+----+-++
++++++59--+-+++--++--8++-++-+4-----+---++--+--+4++
---++----++--+9----++++++++++8--+7+--++--6++---+--
7++----+-+-+9--+7+----+-++--+9+--+-+-+---+++-+86-8
-++--+--+++--88+-+-+9--+--+-+-+-++----9+++++9----+
+-+-++-++-8+--++9--+---+-++++-+--+-++---+--+-+---+
-+--+-6++++----8+---+-++-------+--+--5---+-7-+++++
--+--+-------+9--++-+-+--++-++----++-+9+++-++---9-
+---++++---7+-+5-++++---+-----+--+-+--+----------+
+9-+--+++--------9+7--8----++++-++6-+-9-98-+++-+++
-6+7-+--7-+--8---++-++++++-7+-+-++--7-+-+-+-+++-+-
--+---+--+--+7++-+++-+-7+--+-----+++--+7+-+++-8+--
-++------8+78+-+-++---5+-++5+--++--+-++-+--+-----7
5+--+--9----9++++-+-6-++8-+9-+--++--+-+-+---------
+--++++--++9--+8--------+-8-------------++9++8+--+

*** Life<FredkinCell> 5x5 ***

Generation = 0, Population = 4.
-----
-----
-----
0---0
0-0--

Generation = 3, Population = 15.
0---0
1000-
---0-
-0001
30-02

Generation = 6, Population = 6.
--0-0
-----
--0-0
-----
--0-2

Generation = 9, Population = 3.
---0-
-----
---0-
-----
---0-

*** Life<FredkinCell> 5x5 ***

Generation = 0, Population = 6.
-----
0--0-
--00-
00---
-----

Generation = 8, Population = 13.
--05-
5-6-5
4--33
6-6-5
--04-

Generation = 16, Population = 13.
--09-
+-+-+
8--77
+-+-+
--08-

*** Life<FredkinCell> 7x7 ***

Generation = 0, Population = 10.
----0--
--0-0--
----00-
-------
-----0-
-0---00
--0----

Generation = 2, Population = 27.
--1--10
0-0-0-0
--11021
-00-100
--0012-
----1-2
0-0-01-

Generation = 4, Population = 24.
1---1-0
-00-200
103-043
-------
-00-12-
-0---02
0---0-0

Generation = 6, Population = 26.
103-33-
1-0----
323--63
--1-2--
10--320
----2-2
-00-032

Generation = 8, Population = 0.
-------
-------
-------
-------
-------
-------
-------

Generation = 10, Population = 0.
-------
-------
-------
-------
-------
-------
-------

Generation = 12, Population = 0.
-------
-------
-------
-------
-------
-------
-------

Generation = 14, Population = 0.
-------
-------
-------
-------
-------
-------
-------

Generation = 16, Population = 0.
-------
-------
-------
-------
-------
-------
-------

Generation = 18, Population = 0.
-------
-------
-------
-------
-------
-------
-------

Generation = 20, Population = 0.
-------
-------
-------
-------
-------
-------
-------

Generation = 22, Population = 0.
-------
-------
-------
-------
-------
-------
-------

Generation = 24, Population = 0.
-------
-------
-------
-------
-------
-------
-------

Generation = 26, Population = 0.
-------
-------
-------
-------
-------
-------
-------

Generation = 28, Population = 0.
-------
-------
-------
-------
-------
-------
-------

Generation = 30, Population = 0.
-------
-------
-------
-------
-------
-------
-------

Generation = 32, Population = 0.
-------
-------
-------
-------
-------
-------
-------

Generation = 34, Population = 0.
-------
-------
-------
-------
-------
-------
-------

Generation = 36, Population = 0.
-------
-------
-------
-------
-------
-------
-------

Generation = 38, Population = 0.
-------
-------
-------
-------
-------
-------
-------

Generation = 40, Population = 0.
-------
-------
-------
-------
-------
-------
-------

Generation = 42, Population = 0.
-------
-------
-------
-------
-------
-------
-------

Generation = 44, Population = 0.
-------
-------
-------
-------
-------
-------
-------

Generation = 46, Population = 0.
-------
-------
-------
-------
-------
-------
-------

Generation = 48, Population = 0.
-------
-------
-------
-------
-------
-------
-------

Generation = 50, Population = 0.
-------
-------
-------
-------
-------
-------
-------

Generation = 52, Population = 0.
-------
-------
-------
-------
-------
-------
-------

Generation = 54, Population = 0.
-------
-------
-------
-------
-------
-------
-------

Generation = 56, Population = 0.
-------
-------
-------
-------
-------
-------
-------

Generation = 58, Population = 0.
-------
-------
-------
-------
-------
-------
-------

Generation = 60, Population = 0.
-------
-------
-------
-------
-------
-------
-------

Generation = 62, Population = 0.
-------
-------
-------
-------
-------
-------
-------

Generation = 64, Population = 0.
-------
-------
-------
-------
-------
-------
-------

Generation = 66, Population = 0.
-------
-------
-------
-------
-------
-------
-------

Generation = 68, Population = 0.
-------
-------
-------
-------
-------
-------
-------

Generation = 70, Population = 0.
-------
-------
-------
-------
-------
-------
-------

Generation = 72, Population = 0.
-------
-------
-------
-------
-------
-------
-------

Generation = 74, Population = 0.
-------
-------
-------
-------
-------
-------
-------

Generation = 76, Population = 0.
-------
-------
-------
-------
-------
-------
-------

Generation = 78, Population = 0.
-------
-------
-------
-------
-------
-------
-------

Generation = 80, Population = 0.
-------
-------
-------
-------
-------
-------
-------

Generation = 82, Population = 0.
-------
-------
-------
-------
-------
-------
-------

Generation = 84, Population = 0.
-------
-------
-------
-------
-------
-------
-------

Generation = 86, Population = 0.
-------
-------
-------
-------
-------
-------
-------

Generation = 88, Population = 0.
-------
-------
-------
-------
-------
-------
-------

Generation = 90, Population = 0.
-------
-------
-------
-------
-------
-------
-------

Generation = 92, Population = 0.
-------
-------
-------
-------
-------
-------
-------

Generation = 94, Population = 0.
-------
-------
-------
-------
-------
-------
-------

Generation = 96, Population = 0.
-------
-------
-------
-------
-------
-------
-------

Generation = 98, Population = 0.
-------
-------
-------
-------
-------
-------
-------

Generation = 100, Population = 0.
-------
-------
-------
-------
-------
-------
-------

*** Life<FredkinCell> 8x8 ***

Generation = 0, Population = 3.
--------
0-------
--------
-----0--
0-------
--------
--------
--------

Generation = 8, Population = 10.
--------
------2-
2-------
-2-0-2--
4-----0-
0----0--
--------
0-------

Generation = 16, Population = 11.
--------
5-5--5--
2-------
6--0---2
7-1-----
-----0--
2-------
--------

*** Life<FredkinCell> 9x9 ***

Generation = 0, Population = 2.
--------0
---------
---------
---------
---------
---------
---------
--0------
---------

Generation = 7, Population = 37.
-010-----
-0100----
0-0010---
-0-0100--
----0010-
-0---0100
0-0---001
-0-0---01
--0-----0

*** Life<FredkinCell> 12x12 ***

Generation = 0, Population = 62.
---0-0-----0
----0--00-0-
0---00-00-00
-00-0-----0-
00--00000---
----0000-0--
-0--0-0---0-
000----00---
-0-00--0-0-0
-00--00---00
-00--00---0-
-0---0-00-00

Generation = 3, Population = 88.
1-00--00-1-1
--0032-0--10
-1--3-100031
--3---0-0-3-
1-003-3-11--
20-2--110111
111-32102-0-
-111-11--002
010---130001
01-00101--1-
23-221-002-2
0-----0---1-

Generation = 6, Population = 81.
2-0--011112-
-103--01-02-
01---41-304-
--601-0-126-
-211------3-
5-13-3-41-4-
1211---1210-
3-1-21---00-
010222260---
-2---434--2-
3--231---5-3
3-12--02-0-2

Generation = 9, Population = 69.
-21-134-143-
3---7-----54
----57-3-1-3
10-------59-
-52-51---1-0
8-44--351-5-
4--2-5113414
-42231----0-
0-32-3--130-
--1-2----1--
43------280-
-1--0---23-5

Generation = 12, Population = 69.
3-2--3---433
-2-4--41----
1-325-234---
-0-1-2-0-6-1
--3-62-34--0
+2-----6--8-
5232554---1-
37-33--022--
0-6-54-----1
-3-2366-22--
53----12---5
5---02---4--

Generation = 15, Population = 66.
-4-0-----54-
3225--4221-6
--4-8--4--65
416423--16--
-74--244---3
-2-6--3-1--4
8--36---7---
-8-36-3-3---
--7-6----5-1
-4-56------2
-3-4----381-
6-23---5442-

Generation = 18, Population = 71.
35------4---
633-85---2-7
---3+9-7--9-
-------22--3
-85--3556--4
--79--4--5+7
92-475-4763-
--647541---4
---264--35--
-53-7-----55
56-54224----
--331-3-552-

*** Life<FredkinCell> 15x15 ***

Generation = 0, Population = 42.
---0-----0---00
---0--------0-0
-----0-0------0
----------00---
0-----0----0---
-----0----0-0--
---------------
-0-------------
-0---00----0--0
----0-------0-0
---------------
0--0---------0-
0-0-----00--0-0
---------0-0---
---00-------00-

Generation = 4, Population = 91.
1-----0--0100-2
---2-3-10---2--
-0--------01111
-0----01------1
-1-02001-002-0-
-2-00-1-00-----
-----3-1------0
12-2-1----01-0-
-----1130--1--2
0----0---1-1--1
---00-------30-
-32-3--1-3---1-
10000---2-121--
----01-2-4-0100
--0----12---12-

Generation = 8, Population = 100.
---3----11---22
---2-41-1--1--1
32------3--1-1-
0-1-------3-21-
--21-001-1-61-1
-6000----103-13
----2----1--0-1
-----2---1-----
01-1123-2--202-
--120-3-0223--5
3-1--1-321--7--
3----13-151--3-
-2----1----4-43
-1-103----10-21
-4053-4--20-1-2

Generation = 12, Population = 106.
33171-4-2-3-343
-----65-3-1--1-
-40324-273-----
1-3-02--1----1-
--415---0----0-
-+1-20--4---3-5
351----2-132--3
-42---2-2---12-
2511---4-41---3
----1---46---05
7----3--4512701
-3----4--73-5-1
46-----43-384-3
513------61-3-3
1----34-34-0--3

Generation = 16, Population = 0.
---------------
---------------
---------------
---------------
---------------
---------------
---------------
---------------
---------------
---------------
---------------
---------------
---------------
---------------
---------------

Generation = 20, Population = 0.
---------------
---------------
---------------
---------------
---------------
---------------
---------------
---------------
---------------
---------------
---------------
---------------
---------------
---------------
---------------

Generation = 24, Population = 0.
---------------
---------------
---------------
---------------
---------------
---------------
---------------
---------------
---------------
---------------
---------------
---------------
---------------
---------------
---------------

Generation = 28, Population = 0.
---------------
---------------
---------------
---------------
---------------
---------------
---------------
---------------
---------------
---------------
---------------
---------------
---------------
---------------
---------------

Generation = 32, Population = 0.
---------------
---------------
---------------
---------------
---------------
---------------
---------------
---------------
---------------
---------------
---------------
---------------
---------------
---------------
---------------

Generation = 36, Population = 0.
---------------
---------------
---------------
---------------
---------------
---------------
---------------
---------------
---------------
---------------
---------------
---------------
---------------
---------------
---------------

Generation = 40, Population = 0.
---------------
---------------
---------------
---------------
---------------
---------------
---------------
---------------
---------------
---------------
---------------
---------------
---------------
---------------
---------------

Generation = 44, Population = 0.
---------------
---------------
---------------
---------------
---------------
---------------
---------------
---------------
---------------
---------------
---------------
---------------
---------------
---------------
---------------

Generation = 48, Population = 0.
---------------
---------------
---------------
---------------
---------------
---------------
---------------
---------------
---------------
---------------
---------------
---------------
---------------
---------------
---------------

Generation = 52, Population = 0.
---------------
---------------
---------------
---------------
---------------
---------------
---------------
---------------
---------------
---------------
---------------
---------------
---------------
---------------
---------------

Generation = 56, Population = 0.
---------------
---------------
---------------
---------------
---------------
---------------
---------------
---------------
---------------
---------------
---------------
---------------
---------------
---------------
---------------

Generation = 60, Population = 0.
---------------
---------------
---------------
---------------
---------------
---------------
---------------
---------------
---------------
---------------
---------------
---------------
---------------
---------------
---------------

Generation = 64, Population = 0.
---------------
---------------
---------------
---------------
---------------
---------------
---------------
---------------
---------------
---------------
---------------
---------------
---------------
---------------
---------------

Generation = 68, Population = 0.
---------------
---------------
---------------
---------------
---------------
---------------
---------------
---------------
---------------
---------------
---------------
---------------
---------------
---------------
---------------

Generation = 72, Population = 0.
---------------
---------------
---------------
---------------
---------------
---------------
---------------
---------------
---------------
---------------
---------------
---------------
---------------
---------------
---------------

Generation = 76, Population = 0.
---------------
---------------
---------------
---------------
---------------
---------------
---------------
---------------
---------------
---------------
---------------
---------------
---------------
---------------
---------------

Generation = 80, Population = 0.
---------------
---------------
---------------
---------------
---------------
---------------
---------------
---------------
---------------
---------------
---------------
---------------
---------------
---------------
---------------

Generation = 84, Population = 0.
---------------
---------------
---------------
---------------
---------------
---------------
---------------
---------------
---------------
---------------
---------------
---------------
---------------
---------------
---------------

Generation = 88, Population = 0.
---------------
---------------
---------------
---------------
---------------
---------------
---------------
---------------
---------------
---------------
---------------
---------------
---------------
---------------
---------------

Generation = 92, Population = 0.
---------------
---------------
---------------
---------------
---------------
---------------
---------------
---------------
---------------
---------------
---------------
---------------
---------------
---------------
---------------

Generation = 96, Population = 0.
---------------
---------------
---------------
---------------
---------------
---------------
---------------
---------------
---------------
---------------
---------------
---------------
---------------
---------------
---------------

Generation = 100, Population = 0.
---------------
---------------
---------------
---------------
---------------
---------------
---------------
---------------
---------------
---------------
---------------
---------------
---------------
---------------
---------------

Generation = 104, Population = 0.
---------------
---------------
---------------
---------------
---------------
---------------
---------------
---------------
---------------
---------------
---------------
---------------
---------------
---------------
---------------

Generation = 108, Population = 0.
---------------
---------------
---------------
---------------
---------------
---------------
---------------
---------------
---------------
---------------
---------------
---------------
---------------
---------------
---------------

Generation = 112, Population = 0.
---------------
---------------
---------------
---------------
---------------
---------------
---------------
---------------
---------------
---------------
---------------
---------------
---------------
---------------
---------------

Generation = 116, Population = 0.
---------------
---------------
---------------
---------------
---------------
---------------
---------------
---------------
---------------
---------------
---------------
---------------
---------------
---------------
---------------

Generation = 120, Population = 0.
---------------
---------------
---------------
---------------
---------------
---------------
---------------
---------------
---------------
---------------
---------------
---------------
---------------
---------------
---------------

Generation = 124, Population = 0.
---------------
---------------
---------------
---------------
---------------
---------------
---------------
---------------
---------------
---------------
---------------
---------------
---------------
---------------
---------------

Generation = 128, Population = 0.
---------------
---------------
---------------
---------------
---------------
---------------
---------------
---------------
---------------
---------------
---------------
---------------
---------------
---------------
---------------

Generation = 132, Population = 0.
---------------
---------------
---------------
---------------
---------------
---------------
---------------
---------------
---------------
---------------
---------------
---------------
---------------
---------------
---------------

Generation = 136, Population = 0.
---------------
---------------
---------------
---------------
---------------
---------------
---------------
---------------
---------------
---------------
---------------
---------------
---------------
---------------
---------------

Generation = 140, Population = 0.
---------------
---------------
---------------
---------------
---------------
---------------
---------------
---------------
---------------
---------------
---------------
---------------
---------------
---------------
---------------

Generation = 144, Population = 0.
---------------
---------------
---------------
---------------
---------------
---------------
---------------
---------------
---------------
---------------
---------------
---------------
---------------
---------------
---------------

Generation = 148, Population = 0.
---------------
---------------
---------------
---------------
---------------
---------------
---------------
---------------
---------------
---------------
---------------
---------------
---------------
---------------
---------------

Generation = 152, Population = 0.
---------------
---------------
---------------
---------------
---------------
---------------
---------------
---------------
---------------
---------------
---------------
---------------
---------------
---------------
---------------

Generation = 156, Population = 0.
---------------
---------------
---------------
---------------
---------------
---------------
---------------
---------------
---------------
---------------
---------------
---------------
---------------
---------------
---------------

Generation = 160, Population = 0.
---------------
---------------
---------------
---------------
---------------
---------------
---------------
---------------
---------------
---------------
---------------
---------------
---------------
---------------
---------------

Generation = 164, Population = 0.
---------------
---------------
---------------
---------------
---------------
---------------
---------------
---------------
---------------
---------------
---------------
---------------
---------------
---------------
---------------

Generation = 168, Population = 0.
---------------
---------------
---------------
---------------
---------------
---------------
---------------
---------------
---------------
---------------
---------------
---------------
---------------
---------------
---------------

Generation = 172, Population = 0.
---------------
---------------
---------------
---------------
---------------
---------------
---------------
---------------
---------------
---------------
---------------
---------------
---------------
---------------
---------------

Generation = 176, Population = 0.
---------------
---------------
---------------
---------------
---------------
---------------
---------------
---------------
---------------
---------------
---------------
---------------
---------------
---------------
---------------

Generation = 180, Population = 0.
---------------
---------------
---------------
---------------
---------------
---------------
---------------
---------------
---------------
---------------
---------------
---------------
---------------
---------------
---------------

Generation = 184, Population = 0.
---------------
---------------
---------------
---------------
---------------
---------------
---------------
---------------
---------------
---------------
---------------
---------------
---------------
---------------
---------------

Generation = 188, Population = 0.
---------------
---------------
---------------
---------------
---------------
---------------
---------------
---------------
---------------
---------------
---------------
---------------
---------------
---------------
---------------

Generation = 192, Population = 0.
---------------
---------------
---------------
---------------
---------------
---------------
---------------
---------------
---------------
---------------
---------------
---------------
---------------
---------------
---------------

Generation = 196, Population = 0.
---------------
---------------
---------------
---------------
---------------
---------------
---------------
---------------
---------------
---------------
---------------
---------------
---------------
---------------
---------------

Generation = 200, Population = 0.
---------------
---------------
---------------
---------------
---------------
---------------
---------------
---------------
---------------
---------------
---------------
---------------
---------------
---------------
---------------

*** Life<FredkinCell> 3x3 ***

Generation = 0, Population = 9.
000
000
000

Generation = 7, Population = 0.
---
---
---

*** Life<FredkinCell> 4x4 ***

Generation = 0, Population = 16.
0000
0000
0000
0000

Generation = 2, Population = 8.
-22-
2--2
2--2
-22-

Generation = 4, Population = 8.
-44-
4--4
4--4
-44-

Generation = 6, Population = 8.
-66-
6--6
6--6
-66-

Generation = 8, Population = 8.
-88-
8--8
8--8
-88-

Generation = 10, Population = 8.
-++-
+--+
+--+
-++-

Generation = 12, Population = 8.
-++-
+--+
+--+
-++-

Generation = 14, Population = 8.
-++-
+--+
+--+
-++-

Generation = 16, Population = 8.
-++-
+--+
+--+
-++-

Generation = 18, Population = 8.
-++-
+--+
+--+
-++-

Generation = 20, Population = 8.
-++-
+--+
+--+
-++-
